abcdefghijklmnopqrstuvwxyzABCDEFGHIJKLMNOPQRSTUVWXYZ1234567890、。·‥…¨〃­―∥＼∼‘’“”〔〕〈〉《》「」『』【】±×÷≠≤≥∞∴°′″℃Å￠￡￥♂♀∠⊥⌒∂∇≡≒§※☆★○●◎◇◆□■△▲▽▼→←↑↓↔〓≪≫√∽∝∵∫∬∈∋⊆⊇⊂⊃∪∩∧∨￢⇒⇔∀∃´～ˇ˘˝˚˙¸˛¡¿ː∮∑∏¤℉‰◁◀▷▶♤♠♡♥♧♣⊙◈▣◐◑▒▤▥▨▧▦▩♨☏☎☜☞¶†‡↕↗↙↖↘♭♩♪♬㉿㈜№㏇™㏂㏘℡€®㉾！＂＃＄％＆＇（）＊＋，－．／０１２３４５６７８９：；＜＝＞？＠ＡＢＣＤＥＦＧＨＩＪＫＬＭＮＯＰＱＲＳＴＵＶＷＸＹＺ［￦］＾＿｀ａｂｃｄｅｆｇｈｉｊｋｌｍｎｏｐｑｒｓｔｕｖｗｘｙｚ｛｜｝￣ㄱㄲㄳㄴㄵㄶㄷㄸㄹㄺㄻㄼㄽㄾㄿㅀㅁㅂㅃㅄㅅㅆㅇㅈㅉㅊㅋㅌㅍㅎㅏㅐㅑㅒㅓㅔㅕㅖㅗㅘㅙㅚㅛㅜㅝㅞㅟㅠㅡㅢㅣㅤㅥㅦㅧㅨㅩㅪㅫㅬㅭㅮㅯㅰㅱㅲㅳㅴㅵㅶㅷㅸㅹㅺㅻㅼㅽㅾㅿㆀㆁㆂㆃㆄㆅㆆㆇㆈㆉㆊㆋㆌㆍㆎⅰⅱⅲⅳⅴⅵⅶⅷⅸⅹⅠⅡⅢⅣⅤⅥⅦⅧⅨⅩΑΒΓΔΕΖΗΘΙΚΛΜΝΞΟΠΡΣΤΥΦΧΨΩαβγδεζηθικλμνξοπρστυφχψω─│┌┐┘└├┬┤┴┼━┃┏┓┛┗┣┳┫┻╋┠┯┨┷┿┝┰┥┸╂┒┑┚┙┖┕┎┍┞┟┡┢┦┧┩┪┭┮┱┲┵┶┹┺┽┾╀╁╃╄╅╆╇╈╉╊㎕㎖㎗ℓ㎘㏄㎣㎤㎥㎦㎙㎚㎛㎜㎝㎞㎟㎠㎡㎢㏊㎍㎎㎏㏏㎈㎉㏈㎧㎨㎰㎱㎲㎳㎴㎵㎶㎷㎸㎹㎀㎁㎂㎃㎄㎺㎻㎼㎽㎾㎿㎐㎑㎒㎓㎔Ω㏀㏁㎊㎋㎌㏖㏅㎭㎮㎯㏛㎩㎪㎫㎬㏝㏐㏓㏃㏉㏜㏆ÆÐªĦĲĿŁØŒºÞŦŊ㉠㉡㉢㉣㉤㉥㉦㉧㉨㉩㉪㉫㉬㉭㉮㉯㉰㉱㉲㉳㉴㉵㉶㉷㉸㉹㉺㉻ⓐⓑⓒⓓⓔⓕⓖⓗⓘⓙⓚⓛⓜⓝⓞⓟⓠⓡⓢⓣⓤⓥⓦⓧⓨⓩ①②③④⑤⑥⑦⑧⑨⑩⑪⑫⑬⑭⑮½⅓⅔¼¾⅛⅜⅝⅞æđðħıĳĸŀłøœßþŧŋŉ㈀㈁㈂㈃㈄㈅㈆㈇㈈㈉㈊㈋㈌㈍㈎㈏㈐㈑㈒㈓㈔㈕㈖㈗㈘㈙㈚㈛⒜⒝⒞⒟⒠⒡⒢⒣⒤⒥⒦⒧⒨⒩⒪⒫⒬⒭⒮⒯⒰⒱⒲⒳⒴⒵⑴⑵⑶⑷⑸⑹⑺⑻⑼⑽⑾⑿⒀⒁⒂¹²³⁴ⁿ₁₂₃₄АБВГДЕЁЖЗИЙКЛМНОПРСТУФХЦЧШЩЪЫЬЭЮЯабвгдеёжзийклмнопрстуфхцчшщъыьэюя`~!@#$%^&*()_-+=|\{[]}"':;?/>.<,
一
丁
七
三
下
丈
上
丑
丐
不
丙
世
丕
且
丘
丞
丟
並
丫
中
串
丸
凡
丹
主
乃
久
么
之
尹
乍
乏
乎
乒
乓
乖
乘
乙
九
也
乞
乩
乳
乾
亂
了
予
事
二
于
云
井
互
五
亙
些
亞
亟
亡
交
亦
亥
亨
享
京
亭
亮
人
仁
什
仃
仆
仇
仍
今
介
仄
以
付
仔
仕
他
仗
代
令
仙
仞
仿
伉
伙
伊
伕
伍
伐
休
伏
仲
件
任
仰
仳
份
企
位
住
佇
佗
佞
伴
佛
何
估
佐
佑
伽
伺
伸
佃
佔
似
但
佣
作
你
伯
低
伶
余
佝
佯
依
侍
佳
使
佬
供
例
來
侃
佰
併
侈
佩
佻
侖
佾
侏
信
侵
侯
便
俠
俑
俏
保
促
侶
俘
俟
俊
俗
侮
俐
俄
係
俚
俎
俞
倌
倍
倣
俯
倦
倥
俸
倩
倖
倆
值
借
倚
倒
們
俺
倀
倔
倨
俱
倡
個
候
倘
俳
修
倭
倪
俾
倫
倉
偺
偽
停
假
偃
偌
做
偉
健
偶
偎
偕
偵
側
偷
偏
倏
傢
傍
傅
備
傑
傀
傖
傘
傭
債
傲
傳
僅
傾
催
傷
傻
傯
僧
僮
僥
僖
僭
僚
僕
像
僑
僱
億
儀
僻
僵
價
儂
儈
儉
儒
儘
儔
儐
優
償
儡
儲
儷
儼
兀
元
允
充
兄
光
兇
兆
先
兌
克
免
兔
兒
兕
兗
兜
兢
入
內
全
兩
八
六
兮
公
共
兵
具
其
典
兼
冀
冉
冊
再
冒
冑
冕
最
冗
冠
冤
冥
冢
冬
冰
冶
冷
冽
凍
凌
准
凋
凜
凝
几
凰
凱
凳
凶
凹
出
凸
函
刀
刁
刃
分
切
刈
刊
列
刑
划
刎
別
判
利
刪
刨
刻
券
刷
刺
到
刮
制
剁
剎
剃
削
前
剌
剋
則
剖
剜
剔
剛
剝
剪
副
割
剴
創
剩
剿
剷
剽
劃
劇
劈
劉
劍
劑
力
加
功
劣
劫
助
努
劬
劾
勇
勉
勃
勁
勒
務
勘
動
勞
勝
勛
募
勦
勤
勢
勵
勸
勻
勾
勿
包
匆
匈
匍
匐
匏
匕
化
北
匙
匝
匡
匠
匣
匪
匯
匱
匹
匿
區
匾
十
千
午
升
卅
仟
半
卉
卒
協
卓
卑
南
博
卜
卞
卡
占
卦
卯
卮
印
危
即
卵
卷
卸
卹
卻
卿
厄
厚
原
厝
厥
厭
厲
去
參
又
叉
友
及
反
取
叔
受
叛
叟
曼
叢
口
可
古
右
召
叮
叩
叨
叼
司
叵
叫
另
只
史
叱
台
句
叭
吉
吏
同
吊
吐
吁
吋
各
向
名
合
吃
后
吆
吒
吝
吭
吞
吾
否
呎
吧
呆
呃
吳
呈
呂
君
吩
告
吹
吻
吸
吮
吵
吶
吠
吼
呀
吱
含
吟
味
呵
咖
呸
咕
咀
呻
呷
咄
咒
咆
呼
咐
呱
呶
和
咚
呢
周
咋
命
咎
咬
哀
咨
哎
哉
咸
咦
咳
哇
哂
咽
咪
品
哄
哈
咯
咫
咱
咻
哨
唐
唁
唷
哼
哥
哲
唆
哺
唔
哩
哭
員
唉
哮
哪
哦
唧
商
啪
啦
啄
啞
啡
啃
啊
唱
啖
問
啕
唯
啤
唸
售
啜
唬
啣
唳
啻
喀
喧
啼
喊
喝
喘
喂
喜
喪
喔
喇
喋
喃
喳
單
喟
唾
喲
喚
喻
喬
喱
啾
喉
嗟
嗨
嗓
嗦
嗎
嗜
嗇
嗑
嗣
嗤
嗯
嗚
嗡
嗅
嗆
嗥
嗾
嘀
嘛
嘗
嗽
嘔
嘆
嘉
嘍
嘎
嗷
嘖
嘟
嘈
嘮
嘻
嘹
嘲
嘿
嘴
嘩
噓
噎
噗
噴
嘶
嘯
嘰
噙
噫
噹
噩
噤
噸
噪
器
噥
噱
噯
噬
噢
嚎
嚀
嚐
嚅
嚇
嚏
嚕
嚮
嚥
嚨
嚷
嚶
嚴
嚼
囁
囀
囂
囈
囊
囉
囌
囑
四
囚
因
回
囪
困
囤
固
圃
圈
國
圍
園
圓
團
圖
土
圳
地
在
圭
圬
圯
坊
坑
址
坍
均
坎
圾
坐
坏
垃
坷
坪
坩
坡
坦
坤
坼
垂
型
垠
垣
垢
城
垮
埂
埔
埋
埃
域
堅
堊
堆
埠
埤
基
堂
堵
執
培
堯
堪
場
堤
堰
報
堡
塞
塑
塘
塗
塚
塔
填
塌
塭
塊
塢
塵
塾
境
墓
墊
塹
墅
墀
墟
增
墳
墜
墮
壁
墾
壇
壅
壕
壓
壑
壙
壘
壞
壟
壢
壤
壩
士
壬
壯
壹
壺
壽
夏
夔
夕
外
夙
多
夜
夠
夥
夢
夤
大
天
夫
太
夭
央
失
夷
夸
夾
奉
奇
奈
奄
奔
奕
契
奏
奎
奐
套
奘
奚
奢
奠
奧
奪
奩
奮
女
奴
奶
妄
奸
妃
好
她
如
妁
妝
妒
妨
妞
妣
妙
妖
妍
妤
妓
妊
妥
妾
妻
委
妹
妮
姑
姆
姐
姍
始
姓
姊
妯
妳
姒
姜
姘
姿
姣
姨
娃
姥
姪
姚
姦
威
姻
娑
娘
娜
娟
娛
娓
姬
娠
娣
娩
娥
娌
娶
婁
婉
婦
婪
婀
娼
婢
婚
婆
婊
婷
媚
婿
媒
媛
嫁
嫉
嫌
媾
媽
媼
媳
嫂
媲
嫡
嫦
嫩
嫗
嫖
嫘
嫣
嬉
嫻
嬋
嫵
嬌
嬝
嬴
嬰
嬪
嬤
嬸
孀
子
孑
孓
孔
孕
字
存
孝
孜
孚
孟
孤
季
孩
孫
孰
孳
孱
孵
學
孺
孽
孿
它
宇
守
宅
安
完
宋
宏
宗
定
官
宜
宙
宛
宣
宦
室
客
宥
宰
害
家
宴
宮
宵
容
宸
寇
寅
寄
寂
宿
密
寒
富
寓
寐
寞
寧
寡
寥
實
寨
寢
寤
察
寮
寬
審
寫
寵
寶
寸
寺
封
射
尉
專
將
尊
尋
對
導
小
少
尖
尚
尤
尬
就
尷
尸
尺
尼
局
屁
尿
尾
屈
居
屆
屎
屏
屍
屋
屑
展
屐
屠
屜
屢
層
履
屬
屯
山
屹
岐
岑
岔
岌
岷
岡
岸
岩
岫
岱
岳
峙
峭
峽
峻
峪
峨
峰
島
崁
崇
崆
崎
崛
崖
崢
崑
崩
崔
崙
嵌
嵐
嵩
嶄
嶇
嶝
嶼
嶺
嶽
巍
巔
巒
巖
川
州
巢
工
巨
巧
左
巫
差
己
已
巳
巴
巷
巽
巾
市
布
帆
希
帘
帚
帖
帕
帛
帑
帝
帥
席
師
常
帶
帳
帷
幅
帽
幀
幌
幛
幣
幕
幗
幔
幢
幟
幫
干
平
并
年
幸
幹
幻
幼
幽
幾
序
庇
床
庚
店
府
底
庖
庠
度
庫
庭
座
康
庸
庶
庵
庾
廊
廁
廂
廉
廈
廓
廖
廢
廚
廟
廝
廣
廠
龐
廬
廳
廷
延
建
廿
弁
弄
弈
弊
式
弒
弓
弔
引
弘
弗
弛
弟
弦
弧
弩
弭
弱
張
強
弼
彆
彈
彌
彎
彗
彙
彞
彤
形
彥
彬
彩
彫
彭
彰
影
彷
役
往
征
彿
彼
很
待
徊
律
徇
後
徒
徑
徐
得
徙
從
徘
御
復
循
徨
徬
微
徹
德
徵
徽
心
必
忙
忖
忘
忌
志
忍
忱
快
忝
忠
忽
念
忿
怏
怔
怯
怵
怖
怪
怕
怡
性
怒
思
怠
急
怎
怨
恍
恰
恨
恢
恆
恃
恬
恫
恪
恤
恙
恣
恥
恐
恕
恭
恩
息
悄
悟
悚
悍
悔
悌
悅
悖
恿
患
悉
悠
您
惋
悴
惦
悽
情
悻
悵
惜
悼
惘
惕
惆
惟
悸
惚
惑
惡
悲
悶
惠
愜
愣
惺
愕
惰
惻
惴
慨
惱
愎
惶
愉
愀
愚
意
慈
感
想
愛
惹
愁
愈
慎
慌
慄
慍
愾
愴
愧
慇
愿
態
慷
慢
慣
慟
慚
慘
慶
慧
慮
慝
慕
憂
慼
慰
慫
慾
憧
憐
憫
憎
憬
憚
憤
憔
憲
憑
憩
憊
懍
憶
憾
懊
懈
應
懂
懇
懦
懣
懲
懷
懶
懵
懸
懺
懼
懾
懿
戀
戈
戊
戎
戌
戍
成
戒
我
或
戕
戚
戛
戟
戡
戢
截
戮
戰
戲
戴
戳
戶
房
戾
所
扁
扇
扈
扉
手
才
扎
打
扔
扒
扣
扛
托
抄
抗
抖
技
扶
抉
扭
把
扼
找
批
扳
抒
扯
折
扮
投
抓
抑
承
拉
拌
拄
抿
拂
抹
拒
招
披
拓
拔
拋
拈
抨
抽
押
拐
拙
拇
拍
抵
拚
抱
拘
拖
拗
拆
抬
拎
拜
挖
按
拼
拭
持
拮
拽
指
拱
拷
拯
括
拾
拴
挑
拳
挈
拿
捎
挾
振
捕
捂
捆
捏
捉
挺
捐
挽
挪
挫
挨
掠
控
捲
掖
探
接
捷
捧
掘
措
捱
掩
掉
掃
掛
捫
推
掄
授
掙
採
掬
排
掏
掀
捻
捩
捨
掣
掌
描
揀
揩
揉
揆
揍
插
揣
提
握
揖
揭
揮
捶
援
揪
換
摒
揚
搓
搾
搞
搪
搭
搽
搬
搏
搜
搔
損
搶
搖
搗
撇
摘
摔
撤
摸
摟
摺
摑
摧
摩
摯
摹
撞
撲
撈
撐
撰
撥
撓
撕
撩
撒
撮
播
撫
撚
撬
擅
擁
擋
撻
撼
據
擄
擇
擂
操
撿
擒
擔
擎
擊
擘
擠
擰
擦
擬
擱
擴
擲
擾
攆
擺
擻
攀
攏
攘
攔
攙
攝
攜
攤
攣
攫
攪
攬
支
收
改
攻
放
政
故
效
敝
敖
救
教
敗
啟
敏
敘
敞
敦
敢
散
敬
敲
敵
敷
數
整
斂
斃
文
斑
斐
斗
料
斜
斟
斡
斤
斥
斧
斫
斬
斯
新
斷
方
於
施
旁
旅
族
旋
旌
旎
旗
旖
既
日
旦
早
旨
旬
旭
旱
旺
昔
易
昌
昆
昂
明
昀
昏
春
昭
映
昧
是
星
昨
時
晉
晏
晃
晒
晌
晝
晚
晤
晨
晦
普
晰
晴
晶
景
暑
智
暗
暉
暇
暈
暖
暢
暨
暮
暫
暴
曆
曉
暹
曙
曖
曠
曝
曦
曰
曲
曳
更
曷
書
曹
勗
曾
替
會
月
有
服
朋
朔
朕
朗
望
期
朝
朦
朧
木
朮
本
未
末
札
朽
朴
朱
朵
束
李
杏
材
村
杜
杖
杞
杉
杭
枋
枕
東
果
杳
杷
枇
枝
林
杯
杰
板
枉
松
析
杵
枚
柿
染
柱
柔
某
柬
架
枯
柵
柩
柯
柄
柑
枴
柚
查
枸
柏
柞
柳
校
核
案
框
桓
根
桂
桔
栩
梳
栗
桌
桑
栽
柴
桐
桀
格
桃
株
桅
栓
梁
梯
梢
梓
梵
桿
桶
梱
梧
梗
械
梃
棄
梭
梆
梅
梔
條
梨
梟
棺
棕
棠
棘
棗
椅
棟
棵
森
棧
棹
棒
棲
棣
棋
棍
植
椒
椎
棉
棚
榔
業
楚
楷
楠
楔
極
椰
概
楊
楨
楫
楞
楓
楹
榆
榜
榨
榕
槁
榮
槓
構
榛
榷
榻
榫
榴
槐
槍
榭
槌
樣
樟
槨
樁
樞
標
槽
模
樓
樊
槳
樂
樅
樽
樸
樺
橙
橫
橘
樹
橄
橢
橡
橋
橇
樵
機
檀
檔
檄
檢
檜
櫛
檳
檬
櫃
檻
檸
櫂
櫥
櫝
櫚
櫓
櫻
欄
權
欖
欠
次
欣
欲
款
欺
欽
歇
歉
歌
歐
歙
歟
歡
止
正
此
步
武
歧
歪
歲
歷
歸
歹
死
歿
殃
殆
殊
殉
殘
殖
殤
殮
殯
殲
段
殷
殺
殼
毀
殿
毅
毆
毋
母
每
毒
毓
比
毗
毛
毫
毯
毽
氏
民
氐
氓
氖
氛
氟
氣
氧
氨
氦
氤
氫
氮
氯
氳
水
永
汁
汀
氾
求
汝
汗
汙
江
池
汐
汕
汞
沙
沁
沈
沉
沅
沛
汪
決
沐
汰
沌
汨
沖
沒
汽
沃
汲
汾
泣
注
泳
沱
泌
泥
河
沽
沾
沼
波
沫
法
泓
沸
泄
油
況
沮
泗
泅
泱
沿
治
泡
泛
泊
泉
泰
洋
洲
洪
流
津
洌
洱
洞
洗
活
洽
派
洶
洛
浪
涕
消
涇
浦
浸
海
浙
涓
浬
涉
浮
浚
浴
浩
涎
涼
淳
淙
液
淡
淌
淤
添
淺
清
淇
淋
涯
淑
涮
淞
淹
涸
混
淵
淅
淒
渚
涵
淚
淫
淘
淪
深
淮
淨
淆
淄
港
游
湔
渡
渲
湧
湊
渠
渥
渣
減
湛
湘
渤
湖
湮
渭
渦
湯
渴
湍
渺
測
湃
渝
渾
滋
溉
渙
溢
溯
滓
溶
滂
源
溝
滇
滅
溥
溘
溼
溺
溫
滑
準
溜
滄
滔
溪
漳
演
滾
漓
滴
漩
漾
漠
漬
漏
漂
漢
滿
滯
漆
漱
漸
漲
漣
漕
漫
漯
澈
漪
滬
漁
滲
滌
漿
潼
澄
潑
潦
潔
澆
潭
潛
潸
潮
澎
潺
潰
潤
澗
潘
濂
澱
澡
濃
澤
濁
澧
澳
激
澹
濘
濱
濟
濠
濛
濤
濫
濯
澀
濬
濡
瀉
瀋
濾
瀆
濺
瀑
瀏
瀛
瀟
瀨
瀚
瀝
瀕
瀾
瀰
灌
灑
灘
灣
灤
火
灰
灶
灼
災
灸
炕
炎
炒
炊
炙
炫
為
炳
炬
炯
炭
炸
炮
烊
烘
烤
烙
烈
烏
烹
焉
焊
烽
焙
焚
焦
焰
無
然
煮
煎
煙
煩
煤
煉
照
煜
煬
煦
煌
煥
煞
熔
熙
煽
熊
熄
熟
熬
熱
熨
熾
燉
燐
燒
燈
燕
熹
燎
燙
燜
燃
燄
燧
營
燮
燦
燥
燭
燬
燴
燻
爆
爍
爐
爛
爨
爪
爬
爭
爰
爵
父
爸
爹
爺
爻
爽
爾
牆
片
版
牌
牒
牖
牘
牙
牛
牟
牝
牢
牡
牠
牧
物
牲
牯
牴
特
牽
犁
犄
犀
犒
犖
犛
犢
犧
犬
犯
狄
狂
狀
狎
狙
狗
狐
狩
狠
狡
狼
狹
狽
狸
狷
猜
猛
猖
猓
猙
猶
猥
猴
猩
猷
獅
猿
猾
獄
獐
獎
獗
獨
獰
獲
獷
獵
獸
獺
獻
玀
玄
率
王
玉
玖
玩
玨
玟
玫
玷
珊
玻
玲
珍
珀
玳
班
琉
珮
珠
琅
琊
球
理
現
琍
琺
琪
琳
琢
琥
琵
琶
琴
瑯
瑚
瑕
瑟
瑞
瑁
琿
瑙
瑛
瑜
瑤
瑣
瑪
瑰
瑩
璋
璃
璜
璣
璩
環
璦
璧
璽
瓊
瓏
瓜
瓠
瓢
瓣
瓦
瓶
瓷
甄
甌
甕
甘
甚
甜
生
產
甥
甦
用
甩
甬
甫
甭
田
由
甲
申
男
甸
甽
畏
界
畔
畝
畜
畚
留
略
畦
畢
異
畫
番
當
畸
疇
疆
疊
疋
疏
疑
疝
疙
疚
疫
疤
疥
疾
病
症
疲
疳
疽
疼
疹
痔
痕
疵
痢
痛
痣
痙
痘
痊
痞
瘀
痰
瘁
痲
痱
痺
痿
痴
瘧
瘍
瘋
瘉
瘓
瘠
瘩
瘟
瘤
瘦
瘡
瘴
瘸
癆
療
癌
癖
癘
癒
癢
癥
癩
癮
癬
癱
癲
癸
登
發
白
百
皂
的
皆
皇
皈
皎
皖
皓
皚
皮
皰
皴
皺
皿
盂
盈
盆
盃
益
盍
盎
盔
盒
盛
盜
盞
盟
盡
監
盤
盧
盥
盪
目
盯
盲
直
省
盹
相
眉
看
盾
盼
眩
真
眠
眨
眷
眾
眼
眶
眸
眺
睏
睛
睫
睦
睞
督
睹
睪
睬
睜
睥
睨
瞄
睽
睿
睡
瞎
瞇
瞌
瞑
瞠
瞞
瞟
瞥
瞳
瞪
瞰
瞬
瞧
瞭
瞽
瞿
瞻
矇
矓
矗
矚
矛
矜
矢
矣
知
矩
短
矮
矯
石
矽
砂
研
砌
砍
砰
砧
砸
砝
破
砷
砥
砭
硫
硃
硝
硬
硯
碎
碰
碗
碘
碌
碉
硼
碑
磁
碟
碧
碳
碩
磋
磅
確
磊
碾
磕
碼
磐
磨
磚
磬
磷
磺
磴
磯
礁
礎
礙
礦
礪
礬
礫
示
社
祀
祁
祆
祉
祈
祇
祕
祐
祠
祟
祖
神
祝
祗
祚
祥
票
祭
祺
祿
禁
禎
福
禍
禦
禧
禪
禮
禱
禹
萬
禽
禾
私
秀
禿
秉
科
秒
秋
秤
秣
秧
租
秦
秩
移
稍
稈
程
稅
稀
稜
稚
稠
稔
稟
種
稱
稿
稼
穀
稽
稷
稻
積
穎
穆
穌
穗
穡
穢
穫
穩
穴
究
空
穹
穿
突
窄
窈
窒
窕
窘
窗
窖
窟
窠
窪
窩
窯
窮
窺
竄
竅
竇
竊
立
站
童
竣
竭
端
競
竹
竺
竿
竽
笆
笑
笠
笨
笛
第
符
笙
笞
等
策
筆
筐
筒
答
筍
筋
筏
筷
節
筠
管
箕
箋
筵
算
箝
箔
箏
箭
箱
範
箴
篆
篇
篁
篙
簑
築
篤
篛
篡
篩
簇
簍
篾
篷
簫
簧
簪
簞
簣
簡
簾
簿
簸
簽
簷
籌
籃
籍
籐
籠
籟
籤
籬
籮
籲
米
粉
粒
粗
粟
粥
粱
粳
粵
粹
粽
精
糊
糕
糖
糠
糜
糞
糢
糟
糙
糧
糯
糸
系
糾
紂
紅
紀
紉
紇
約
紡
紗
紋
紊
素
索
純
紐
紕
級
紜
納
紙
紛
絆
絃
統
紮
紹
紼
絀
細
紳
組
累
終
絞
結
絨
絕
紫
絮
絲
絡
給
絢
經
絹
綑
綁
綏
綻
綰
綜
綽
綾
綠
緊
綴
網
綱
綺
綢
綿
綵
綸
維
緒
緇
締
練
緯
緻
緘
緬
緝
編
緣
線
緞
緩
綞
縊
縑
縈
縛
縣
縮
績
繆
縷
縲
繃
縫
總
縱
繅
繁
織
繕
繞
繚
繡
繫
繭
繹
繩
繪
辮
繽
繼
纂
纏
續
纓
纖
纜
缶
缸
缺
缽
罄
罈
罐
罕
罔
罟
置
罩
罪
署
罰
罵
罷
罹
羅
羈
羊
羌
羋
美
羔
羞
羚
善
義
羨
群
羯
羲
羶
羹
羸
羽
羿
翅
翁
翌
翎
習
翔
翕
翠
翡
翟
翩
翰
翱
翳
翼
翹
翻
耀
老
考
者
耆
而
耐
耍
耒
耘
耕
耙
耗
耜
耳
耶
耽
耿
聊
聆
聖
聘
聞
聚
聱
聲
聰
聯
聳
職
聶
聾
聽
聿
肆
肄
肅
肇
肉
肋
肌
肖
肓
肝
肘
肛
肚
育
肺
肥
肢
肱
股
肫
肩
肴
肪
肯
胖
胥
胚
胃
胄
背
胡
胛
胎
胞
胤
胱
脂
胰
脅
胭
胴
脆
胸
胳
脈
能
脊
脯
脖
脣
脫
脩
腕
腔
腋
腑
腎
脹
腆
脾
腐
腱
腰
腸
腥
腮
腳
腫
腹
腺
腦
膀
膏
膈
膊
腿
膛
膜
膝
膠
膚
膳
膩
膨
臆
臃
膺
臂
臀
膿
膽
臉
膾
臍
臏
臘
臚
臟
臣
臥
臧
臨
自
臭
臬
至
致
臺
臻
臼
臾
舀
舂
舅
與
興
舉
舊
舌
舍
舐
舒
舔
舛
舜
舞
舟
舢
航
舫
舨
般
舵
舷
舶
船
艇
艘
艙
艦
艮
良
艱
色
艾
芒
芋
芍
芳
芝
芙
芭
芽
芟
芹
花
芬
芥
芻
苧
范
茅
苣
苛
苦
茄
若
茂
茉
苒
苗
英
茁
苜
苔
苑
苞
苓
苟
茫
荒
荔
荊
茸
荐
草
茵
茴
荏
茲
茹
茶
茗
荀
茱
莎
莞
莘
荸
莢
莖
莽
莫
莒
莊
莓
莉
莠
荷
荻
荼
菩
萃
菸
萍
菠
菅
萋
菁
華
菱
菴
著
萊
菰
萌
菌
菽
菲
菊
萸
萎
萄
菜
蒂
葷
落
萱
葵
葦
葫
葉
葬
葛
萼
萵
葡
董
葩
蓉
蒿
蓆
蓄
蒙
蒞
蒲
蒜
蓋
蒸
蓀
蓓
蒐
蒼
蔗
蔽
蔚
蓮
蔬
蔭
蔓
蔑
蔣
蔡
蔔
蓬
蔥
蓿
蕊
蕙
蕈
蕨
蕩
蕃
蕉
蕭
蕪
薪
薄
蕾
薜
薑
薔
薯
薛
薇
藏
薩
藍
藐
藉
薰
藩
藝
藪
藕
藤
藥
藻
藹
蘑
藺
蘆
蘋
蘇
蘊
蘗
蘭
蘚
蘸
蘿
虎
虐
虔
處
彪
虛
虞
虜
號
虧
虫
虱
虹
蚊
蚪
蚓
蚤
蚩
蚌
蚣
蛇
蛀
蚶
蛄
蚵
蛆
蛋
蚱
蚯
蛟
蛙
蛭
蛔
蛛
蛤
蛹
蜓
蜈
蜇
蜀
蛾
蛻
蜂
蜃
蜿
蜜
蜻
蜢
蜥
蜴
蜘
蝕
螂
蝴
蝶
蝠
蝦
蝸
蝨
蝙
蝗
蝌
螃
螟
螞
螢
融
蟀
蟑
螳
蟒
蟆
螫
螻
螺
蟈
蟋
蟯
蟬
蟲
蟻
蠅
蠍
蟹
蠔
蠕
蠣
蠢
蠡
蠟
蠱
蠶
蠹
蠻
血
行
衍
術
街
衙
衛
衝
衡
衢
衣
初
表
衫
衰
衷
袁
袂
袞
袈
被
袒
袖
袍
袋
裁
裂
袱
裟
裔
裙
補
裘
裝
裡
裊
裕
裳
褂
裴
裹
裸
製
裨
褚
褐
複
褒
褓
褪
褲
褥
褫
褻
褶
襄
褸
襠
襟
襖
襤
襪
襲
襯
西
要
覃
覆
見
覓
規
視
親
覦
覬
覲
覺
覽
觀
角
解
觴
觸
言
計
訂
訃
記
訐
討
訌
訕
訊
託
訓
訖
訪
訝
訣
訥
許
設
訟
訛
註
詠
評
詞
証
詁
詔
詛
詐
詆
訴
診
詫
該
詳
試
詩
詰
誇
詼
詣
誠
話
誅
詭
詢
詮
詬
詹
誦
誌
語
誣
認
誡
誓
誤
說
誥
誨
誘
誑
誼
諒
談
諄
誕
請
諸
課
諉
諂
調
誰
論
諍
諦
諺
諫
諱
謀
諜
諧
諮
諾
謁
謂
諷
諭
謎
謗
謙
講
謊
謠
謝
謄
謨
謹
謬
譁
譜
識
證
譚
譎
譏
議
譬
警
譯
譴
護
譽
讀
變
讓
讒
讖
讚
谷
豁
谿
豆
豈
豉
豌
豎
豐
豔
豕
豚
象
豢
豪
豬
豫
豺
豹
貂
貊
貉
貍
貌
貓
貝
貞
負
財
貢
販
責
貫
貨
貪
貧
貯
貼
貳
賊
資
賈
賄
貲
賃
賂
賓
貽
賅
賁
費
賀
貴
買
貶
貿
貸
賑
賒
賠
賞
賦
賤
賬
賭
賢
賣
賜
質
賴
賺
賽
購
贅
贈
贊
贏
贍
贓
贖
贗
贛
赤
赧
赦
赫
赭
走
赴
赳
起
越
超
趁
趙
趕
趟
趣
趨
足
趴
趾
跎
距
跋
跚
跑
跌
跛
跆
跡
跟
跨
路
跳
跺
跪
跼
踫
踐
踝
踢
踏
踩
踟
蹄
踱
踴
蹂
踹
踵
蹉
蹋
蹈
蹊
蹙
蹣
蹦
蹤
蹼
蹲
躇
蹶
蹬
蹺
躉
躁
躅
躂
躊
躍
躑
躡
躪
身
躬
躲
躺
軀
車
軋
軍
軌
軒
軔
軛
軟
軻
軸
軼
較
載
軾
輊
輔
輒
輕
輓
輝
輛
輟
輩
輦
輪
輜
輻
輯
輸
轄
輾
轂
轅
輿
轉
轍
轔
轎
轟
轡
辛
辜
辟
辣
辨
辦
辭
辯
辰
辱
農
迂
迆
迅
迄
巡
迎
返
近
述
迦
迢
迪
迥
迭
迫
送
逆
迷
退
迺
迴
逃
追
逅
這
逍
通
逗
連
速
逝
逐
逕
逞
造
透
逢
逖
逛
途
逮
逵
週
逸
進
運
遊
道
遂
達
逼
違
遐
遇
遏
過
遍
遑
逾
遁
遠
遘
遜
遣
遙
遞
適
遮
遨
遭
遷
遵
遴
選
遲
遼
遺
避
遽
還
邁
邂
邀
邇
邊
邐
邏
邑
邕
邢
邪
邦
那
邵
邸
邱
郊
郎
郁
郡
部
郭
都
鄂
郵
鄉
鄒
鄙
鄰
鄭
鄧
鄱
鄹
酉
酋
酊
酒
配
酌
酗
酣
酥
酬
酪
酩
酵
酸
酷
醇
醉
醋
醃
醒
醣
醞
醜
醫
醬
醺
釀
釁
采
釉
釋
里
重
野
量
釐
金
釘
針
釗
釜
釵
釦
鈔
釣
釧
鈕
鈣
鈉
鈞
鈍
鈐
鈷
鉗
鈸
鈽
鉀
鈾
鉛
鉋
鉤
鉑
鈴
鉸
銀
銅
銘
銖
鉻
銓
銜
鋅
銻
銷
鋪
銬
鋤
鋁
銳
銼
鋒
錠
錶
鋸
錳
錯
錢
鋼
錫
錄
錚
錐
錦
鍍
鎂
錨
鍵
鍊
鍥
鍋
錘
鍾
鍬
鍛
鍰
鎔
鎊
鎖
鎢
鎳
鎮
鏡
鏑
鏟
鏃
鏈
鏜
鏝
鏖
鏢
鏍
鏘
鏤
鏗
鐘
鐃
鏽
鐮
鐳
鐵
鐺
鐸
鐲
鑄
鑑
鑒
鑣
鑠
鑲
鑰
鑽
鑾
鑼
鑿
長
門
閂
閃
閉
閔
閏
開
閑
間
閒
閘
閡
閨
閩
閣
閥
閤
閭
閱
閻
闊
闋
闌
闈
闆
闔
闖
闐
關
闡
闢
阜
阡
防
阮
阱
阪
陀
阿
阻
附
限
陋
陌
降
院
陣
陡
陛
陝
除
陪
陵
陳
陸
陰
陴
陶
陷
隊
階
隋
陽
隅
隆
隍
陲
隘
隔
隕
隙
障
際
隧
隨
險
隱
隴
隸
隻
雀
雁
雅
雄
集
雇
雍
雋
雉
雌
雕
雖
離
雜
雙
雛
雞
難
雨
雪
雯
雲
雷
電
雹
零
需
霄
霆
震
霉
霎
霑
霖
霍
霓
霏
霜
霞
霪
霧
霸
霹
露
霽
霾
靂
靈
靄
青
靖
靛
靜
非
靠
靡
面
靦
靨
革
靴
靶
靼
鞅
鞍
鞋
鞏
鞘
鞠
鞣
鞦
鞭
韃
韁
韆
韋
韌
韓
韜
韭
音
章
竟
韶
韻
響
頁
頂
頃
項
順
須
預
頑
頓
頊
頒
頌
頗
領
頡
頰
頸
頻
頷
頭
頹
頤
顆
額
顏
題
顎
顓
類
願
顛
顧
顫
顯
顰
顱
風
颯
颱
颳
颶
颺
颼
飄
飛
食
飢
飧
飪
飯
飩
飲
飭
飼
飴
飽
飾
餃
餅
餌
餉
養
餓
餒
餘
餐
館
餞
餛
餡
餵
餾
餿
餽
饅
饒
饑
饜
饞
首
香
馥
馨
馬
馮
馭
馳
馱
馴
駁
駝
駐
駟
駛
駑
駕
駒
駙
駭
駢
駱
騁
駿
騎
騖
騙
騫
騰
騷
驅
驃
驀
騾
驕
驚
驛
驗
驟
驢
驥
驪
骨
骯
骰
骷
骸
骼
髏
髒
髓
體
高
髦
髮
髯
髻
髭
鬃
鬆
鬍
鬚
鬢
鬥
鬧
鬨
鬱
鬼
魁
魂
魅
魄
魏
魔
魘
鬲
魚
魷
魯
鮑
鮮
鮫
鮪
鯊
鯉
鯽
鯨
鯧
鰓
鰍
鰭
鰥
鱉
鰱
鰾
鰻
鱔
鱗
鱖
鱷
鱸
鳥
鳩
鳴
鳶
鳳
鴆
鴉
鴕
鴣
鴦
鴨
鴒
鴛
鴻
鴿
鵑
鵝
鵠
鶉
鵡
鵲
鵪
鵬
鶯
鶴
鷂
鷓
鷗
鷥
鷹
鷺
鸚
鸞
鹹
鹼
鹽
鹿
麂
麋
麒
麗
麓
麝
麟
麥
麩
麴
麵
麻
麼
麾
黃
黍
黎
黏
黑
墨
默
黔
點
黜
黝
黛
黠
黨
黯
黴
黷
鼇
鼎
鼓
鼕
鼙
鼠
鼬
鼴
鼻
鼾
齊
齋
齒
齟
齣
齡
齜
齦
齬
齪
齷
齲
龍
龔
龜
万
丌
丏
冇
与
丮
丱
丰
乂
乜
亍
亓
亢
亳
亶
亹
仂
仉
仨
仜
仩
仡
仝
伎
优
伬
仵
伔
伋
仱
伀
价
佖
伻
佢
佉
体
佤
伾
佈
佧
佒
佚
佟
佁
佘
侘
佼
侅
佽
侀
侇
佶
佴
侉
侑
侄
佷
佌
侗
佪
侚
佹
侁
佸
侐
侜
佺
侔
侞
俍
俅
俓
侲
俉
侷
俋
俁
俔
俜
俙
侻
侳
俛
俇
倞
倅
倇
倓
倢
倰
倛
俵
俴
倳
倷
倬
俶
俷
倗
倜
倠
偯
偰
偪
偡
偞
偠
偭
偓
偋
偝
偲
偈
偍
偁
偛
偊
偢
倕
偅
偟
偩
偫
傛
傚
傕
傔
傞
傋
傣
傃
傌
傎
傝
偨
傜
傒
傂
傽
傿
僆
傮
僄
僊
傴
僇
僈
僂
傰
僁
傺
傱
僋
僉
僦
僔
僗
僨
僳
僛
僪
僎
僝
僤
僓
僩
僬
僰
僿
儃
儰
僸
儆
儇
僶
僾
儋
儌
僽
儜
儕
儓
儗
儚
儑
儦
儥
儢
儤
儠
儱
儴
儵
儳
儺
儸
儹
儻
儽
党
冏
冔
冓
冘
冞
冪
冱
冼
凊
凄
凅
凔
凘
凵
刌
刉
刓
刖
刜
刞
刵
刲
刳
剆
刱
剄
剉
剡
剚
剒
剞
剟
剕
剫
剭
剬
剺
剸
剻
剼
劂
劀
劋
劁
劌
劊
劓
劖
劘
劗
劙
劦
劭
劼
勍
勖
勣
勩
勰
勱
勴
勺
匊
匜
匢
匭
匰
匴
匷
匼
匽
卌
卍
卣
卬
卼
厂
厎
厒
厗
厖
厞
厜
厤
厬
厹
叡
叻
吰
吷
吪
呔
听
咇
呿
咁
咑
咂
咈
呫
呺
呾
呥
呬
呴
呦
咍
咩
咺
咡
咭
咥
咧
哏
哃
茍
咷
咮
哖
咶
哅
哆
咿
咠
呰
咼
咢
唦
唇
哢
唗
唒
哧
哳
哽
哤
唚
哿
唄
唈
哫
唏
唑
唅
啵
啶
唼
啍
啐
唴
唪
啑
啢
唶
唵
唰
啒
啅
啁
啗
唌
唲
啥
啎
喑
喨
喥
喭
啷
噅
喢
喫
喓
喈
喏
喵
喁
喙
喣
喒
喤
啽
喌
喦
嗃
嗛
嗌
嗐
嗉
嗋
嗊
嗝
嗀
嗔
嗄
嗩
喿
嗒
喍
嗏
嗕
嗢
嗖
嗈
嗲
嘧
嘕
嘌
嘒
嗼
嘏
嘜
嘁
嘐
嘓
嗶
嘂
嗺
嘝
嘄
嗿
噈
噂
噌
嘵
噁
噊
噉
噆
噘
噚
噀
嘳
嘽
嘬
嘾
嘸
噰
噠
噶
噮
噳
噦
噣
噭
噲
噞
嚓
嚌
嚍
嚆
嚄
嚃
嚘
嚜
嚗
嚚
嚫
嚭
嚦
嚧
嚪
嚬
嚲
嚵
嚳
囃
嚽
嚾
囆
囅
囋
囓
囍
囔
囗
囝
囡
囟
囫
囮
囧
囷
囹
囿
圁
圄
圂
圊
圉
圇
圌
圜
圞
圠
圩
圮
坁
圻
坅
坌
坯
坲
坭
坫
坱
坰
坶
垀
坵
坻
坳
坴
垵
垞
垓
垟
垤
垌
垗
垝
垛
垔
垘
埌
堲
埕
埒
垺
埆
垽
垼
埻
堔
埢
埶
埜
埴
堀
埭
埽
堈
埸
堋
埳
埏
堇
堩
堷
堙
堞
堧
堝
堣
堨
埵
堠
塈
堥
塓
塨
塤
塒
塏
塍
塉
塯
塕
塋
墉
塼
墐
墘
墆
墁
塿
塴
墋
塺
墩
墫
墝
墱
墠
墣
墦
墯
墬
壈
墽
壖
壎
壚
壝
壛
壴
壼
壾
壿
夃
夆
夌
复
夎
夒
夗
夬
夯
奅
奓
奊
奡
奫
奭
奰
奲
妀
奼
妦
妘
妠
妗
妎
妢
妐
妵
妺
姏
姎
妲
姌
姁
姡
姞
姮
娀
姱
姝
姺
姽
姼
姶
姤
娙
娖
娉
娭
婠
婘
婕
婧
婞
娸
娵
婭
婐
婟
婥
婬
婓
婤
婗
媯
媔
媟
婺
媢
媞
婸
媦
媧
婼
媥
媬
媕
媮
娷
嫇
嫄
嫋
媺
媸
媱
媵
媰
媿
嫈
媻
嫜
嫮
嫥
嫕
嫪
嫚
嫭
嫫
嫳
嫢
嫠
嫛
嫿
嬈
嫴
嫽
嫷
嫶
嬃
嬗
嬙
嬛
嬡
嬔
嬓
嬐
嬖
嬭
嬥
嬲
嬽
嬾
嬿
孃
孅
孈
孋
孌
孛
孢
孥
孬
屘
孲
孷
宁
宄
宎
宓
宕
宨
宧
寁
寀
寪
寍
寋
寔
寑
寖
寘
寙
寠
寰
寱
尃
尌
尐
尒
尟
兀
尨
尪
尰
尳
尻
屄
屌
屖
屔
屙
屝
屣
屧
屨
屩
屭
屮
屴
屼
屺
岍
岏
岈
岋
岉
岒
岊
岮
岤
岠
岵
岯
岨
岬
岟
岣
岭
岢
岪
岧
岝
峐
峘
峌
峒
峗
峋
峛
峞
峚
峉
峇
峊
峬
峴
峿
峮
峱
峷
崞
崋
崝
崚
崠
崌
崨
崍
崦
崤
崥
崏
崰
崒
崧
崗
崣
崟
崷
嵃
嵫
嵁
嵋
崿
崵
嵑
嵎
嵕
崳
崺
崴
嵒
崽
崱
嵙
嵇
嵂
嵯
嵱
嵣
嵊
嵥
嵲
嵬
嵞
嶂
嶀
嵽
嶆
嵺
嶁
嵷
嶊
嶉
嶈
嵾
嶙
嶗
嶟
嶒
嶢
嶓
嶕
嶠
嶜
嶡
嶚
嶞
嶔
嶬
嶱
嶩
嶧
嶵
嶰
嶮
嶪
嶨
嶲
嶭
嶸
嶷
巀
巃
巆
巇
巉
巋
巏
巕
巑
巘
巟
巰
巹
巿
帊
帗
帔
帙
帡
帢
帟
帣
帠
帤
帩
帨
帾
帴
幄
幃
幏
幎
幘
幙
幓
幩
幝
幡
幠
幧
幨
幦
幬
幪
幭
幰
幵
庀
庂
庋
庉
庌
庈
庰
庤
庢
庛
庣
庥
庨
庮
庪
庬
庱
庴
庹
庲
庳
廄
廅
廌
廆
廋
廇
廘
廑
廗
廎
廜
廕
廙
緳
廛
廞
廡
廩
廧
廦
廨
廥
廮
廯
廱
蠯
廾
异
弅
弇
弋
弚
弝
弨
弢
弣
弤
弮
弳
弶
弸
彀
彄
彃
彉
彊
彋
彏
彔
彖
彘
彧
彯
彳
彴
彸
徂
彾
徉
徠
徛
徜
徦
徥
徯
徭
徲
徼
徾
徿
忀
忁
忉
忔
忕
忒
忑
忐
忭
忨
忮
忳
忸
忡
忤
忣
忺
忯
忪
忷
忻
忞
忥
怭
怦
怙
怲
怋
怴
怩
怫
怊
怗
怳
怛
怚
怞
怬
怢
怍
怐
怮
怓
怷
怹
恔
恲
恞
恅
恓
恇
恉
恛
恌
恀
恂
恟
恝
恚
恧
恁
悢
悈
悀
悒
悁
悝
悃
悕
悛
悗
悇
悊
悐
悆
惇
悾
悰
悺
惓
惔
惏
惤
惙
惝
惈
悱
惛
悷
惉
悹
惌
惢
惎
惄
愔
惲
愊
愖
愅
惵
愓
愒
惸
惼
惾
惷
愍
愆
慉
慊
愫
慅
愶
愲
愷
愮
慆
愯
愬
愨
慁
慞
慵
慱
慳
慒
慓
慲
慬
憀
慴
慔
慺
慛
慥
憋
憃
慹
憱
憰
憢
憉
憛
憓
憯
憭
憟
憒
憪
憡
憍
憮
憝
憨
憖
懅
憴
懆
懁
懌
憺
憿
憸
懃
懋
憵
憼
懧
懠
懥
懤
懨
懞
懘
懟
懭
懮
懱
懪
懰
懫
懻
懽
戁
戃
戄
戇
戉
戔
戠
酨
戣
戥
戩
戧
戭
戺
戽
扂
扃
扆
扊
扑
扐
扜
扞
扤
扡
扦
扢
抃
抆
抌
抎
抏
抔
抇
扱
扻
扺
抭
抴
拑
抾
抪
抶
拊
抮
拏
挍
挂
挋
拵
挎
挃
拫
拹
挏
挌
拸
拶
挀
拲
挐
捖
挬
捄
捅
挶
捃
揤
捍
捌
挹
捋
捊
挼
挩
捁
挴
捘
捔
挲
捥
掊
掂
捽
掽
掞
掭
掝
掗
掫
捺
掎
捯
掇
掐
据
掯
捵
掜
捭
掮
掰
捼
掤
挻
掔
掱
揎
揥
揨
揯
揃
撝
揳
揊
揠
揶
揕
揲
揵
摡
揟
揹
掾
揝
揜
揄
揘
揅
揱
揫
搐
搒
搉
搠
搤
搳
搆
摃
搟
搕
搘
搹
搷
搢
搣
搌
搦
搰
搨
摁
搵
搯
搊
搚
摀
搥
搧
搋
搴
搫
摍
摛
摭
摝
摴
摶
摲
摳
摽
摵
摦
撦
摎
撂
摞
摜
摋
摻
摓
摠
摐
摿
摮
摰
撙
撢
撖
撠
撅
撗
撜
撏
撋
撊
撌
撣
撳
撟
擗
擖
擐
擏
擉
撾
撽
擯
擩
擣
擫
擢
擭
擤
擨
擿
擷
攄
擽
擸
攇
攐
攍
攉
攌
攗
攖
攕
攓
攛
攡
攠
攦
攢
攩
攭
攮
攲
攳
攷
攸
攽
敁
敉
敊
敆
敕
敔
敓
敧
敪
敤
敜
敯
敳
敶
敺
敹
敻
敿
斁
斀
斄
斌
斒
斔
斕
斖
斛
斝
斞
斠
斨
斪
斮
斲
斶
斻
斿
旆
旃
旄
旂
旍
旐
旒
旓
旚
旛
旞
旝
旟
旯
旮
旰
旴
旳
昉
旼
昄
昒
昕
昈
旻
昊
昃
昇
昶
昡
昲
昵
昜
昦
昢
昳
昫
昱
昺
昝
昴
晅
晊
晟
晇
晁
晥
晡
晛
晙
晞
晜
晢
晼
晾
晬
晻
暀
晷
暄
暆
暌
暕
暐
暘
暍
暋
暝
暡
暠
暵
暱
暰
暩
曈
暾
曀
曊
曄
曋
曇
曏
曒
曜
曚
曛
曨
曣
曩
曭
曮
曶
朁
朅
朄
朏
朐
朒
朓
朘
朢
朣
朾
朹
朸
朻
机
朿
朼
杆
杅
杇
杠
杙
杕
杌
杈
杝
杓
杗
枓
枅
杬
枎
枒
杶
杼
杻
杪
枘
枆
构
杴
枍
枌
杲
柁
柲
柈
枰
枺
柜
枻
柸
柘
柀
枷
柅
柫
柤
柟
枵
柙
柍
枳
柷
柶
柮
柣
柂
枹
柎
柢
柝
柧
柒
柰
枲
栟
栚
桉
栲
栳
栻
桋
桏
栖
栱
栜
栵
栫
栭
栯
桎
桄
栴
栝
栘
栒
桁
栔
梡
桹
梂
梇
梐
梜
桭
桮
梮
梫
楖
桯
梣
梬
梩
桵
桴
梲
梏
桷
梒
桼
椌
棓
椄
棜
椪
棬
棪
棱
楮
椏
棖
棷
棫
棤
棶
椓
椐
棳
棡
椇
棌
椈
楰
梴
椑
棯
棆
椔
棸
棐
棽
棼
棻
棨
楦
楟
椸
楎
楢
楱
椿
楅
楝
楪
椹
楂
楗
楣
楙
楺
楈
楛
楉
椵
楬
椳
椽
楥
棰
楸
椴
楩
楀
楯
楄
楶
楘
榱
榶
槉
榠
槎
榖
榰
榬
榼
榑
榙
榎
榧
榍
榩
榾
榯
榿
槄
榽
榤
槔
榦
榹
槊
槃
樀
樆
樗
槥
槸
樕
槱
槤
樠
槿
槬
槭
槢
樛
樝
槾
樧
槲
槮
樔
槷
槧
橀
樴
橦
橉
橧
樲
橈
橨
樾
橝
橭
橶
橛
橑
樨
橚
樻
樿
橁
橪
橤
橐
檍
檖
檁
檥
檉
檟
檣
橾
檗
檛
檡
檞
檐
檇
檓
檎
檕
檃
檠
櫅
檹
檽
檮
檯
櫡
櫆
櫧
櫠
櫌
櫑
櫙
櫋
櫟
櫜
櫐
櫫
櫳
櫬
櫰
櫸
櫪
櫨
櫹
櫱
櫺
欂
櫼
欃
欋
欈
欐
欑
欒
欘
欥
欨
欬
欯
欭
欱
欴
欶
欳
欷
欸
欹
欻
欿
歆
歅
歃
歂
歈
歊
歍
歋
歎
歕
歔
歜
歛
歠
歭
殀
歾
殂
殄
肂
殈
殑
殏
殍
殔
殗
殙
殛
殞
殟
殠
殥
殣
殢
殦
殧
殪
殫
殭
殰
殳
殶
殽
嗀
毃
毄
毈
毇
毉
毊
毌
毐
毖
毘
毚
毞
毦
毤
毨
毣
毬
毰
毲
毳
毻
毼
毹
毾
氁
氀
毿
氂
氄
氅
氈
氍
气
氕
氘
氙
氚
氠
氪
氰
氬
氶
汃
氿
汆
汒
污
汜
汏
汊
汛
汍
汔
汎
汋
汴
沆
汸
汶
汧
汫
沄
沍
沋
沏
沔
沘
汱
汯
汩
沚
汭
沇
沕
沜
汦
沂
汳
沓
泬
泫
泮
泙
沶
沬
泔
沭
泧
沷
泯
泐
泂
沺
泃
泆
泭
泜
泲
泒
泖
泝
泠
沴
泵
洨
洴
洭
洟
洹
洼
洿
洒
洧
洊
泚
洸
洳
洩
洄
洮
洙
洺
洵
洚
洎
洫
洑
洀
浺
浣
浤
浶
洍
涌
浡
涒
浘
浢
浭
浯
涑
涍
涊
淯
浹
涅
浿
涆
浥
浞
浧
涔
浠
涗
浰
浼
浟
涂
涘
淀
涫
涴
涳
涪
淬
湴
涬
淩
淢
涷
淶
淔
涿
渀
淈
淠
淟
淖
涾
淥
淜
淝
淛
淴
淊
涽
淭
淰
淦
淼
湆
湇
渟
湉
溈
渼
渽
湅
湢
渫
渿
湁
湝
湳
湎
渜
渳
湣
湄
湋
湀
湑
渻
渃
渮
湞
湨
湜
湡
渱
渨
湠
湲
湱
湩
湫
渹
渢
湟
渰
湓
溛
滖
滈
溏
滀
溟
溓
溔
溠
溱
溹
滆
滒
溧
溽
滁
溞
滉
溷
溰
滍
溦
滏
溲
溴
溾
滃
滜
滕
滎
滵
滱
漃
漥
滸
漷
滻
漮
漉
潎
漙
漚
漧
潁
漘
漻
漒
滭
漊
漶
潳
滹
滮
漭
滷
潀
漰
漼
漵
滫
漇
漎
潃
漅
漦
潾
澇
濆
澒
澍
澉
澌
潢
潏
澅
潯
潚
潠
澖
潶
潬
澂
潕
潲
潒
潐
潗
潟
澔
澓
潝
澶
澭
濋
澣
濇
澦
澼
濎
濈
澠
潞
濄
澽
澞
濊
澴
澨
瀄
澥
澮
濌
澩
濴
濔
濣
濜
濭
濩
濕
濧
濦
濞
濮
濰
瀇
瀌
瀍
瀁
瀅
瀔
瀎
濿
瀀
濻
瀦
濼
瀙
瀧
瀠
瀖
瀫
瀡
瀢
瀘
瀣
瀩
瀼
瀵
瀯
瀷
瀴
瀱
灂
瀸
瀿
瀺
瀲
瀹
灃
灄
灊
灈
灉
灕
灖
灗
灛
灞
灟
灡
灝
灨
灩
灪
炔
炘
炅
炷
炤
炟
炾
炱
炰
烜
烓
烑
烝
烋
缹
烺
焍
烷
焗
烴
焌
烯
烰
焄
焠
焞
焯
焜
烻
焮
焱
焣
煇
煔
煒
煆
煣
煠
煁
煝
煨
煖
煢
煲
熇
熐
熉
熀
熅
熂
熒
熏
熲
熯
熛
熰
熠
熚
燅
燂
熿
熸
燖
燀
燁
燋
燔
燊
燡
燠
燼
爁
燿
燾
燹
爌
爊
爇
爂
爓
爝
爚
爞
爟
爢
爣
牁
牂
牄
牉
牋
牏
牓
牚
牣
牬
牰
牸
牷
牾
牻
牼
牿
犈
犉
犆
犅
犍
犌
犑
犐
犎
犗
犕
犓
犘
犚
犝
犞
犥
犦
犤
犣
犩
犨
犪
犮
犰
犴
犵
犿
犽
狃
狆
狁
狖
狋
狘
狉
狜
狒
狔
狚
狌
狑
狊
狤
狨
狫
狟
狪
狦
狣
猀
狺
狴
狾
狶
狳
狻
猝
猗
猇
猑
猒
猘
猊
猈
狿
猏
猋
猰
猢
猱
猳
猧
猲
猭
猦
猣
猵
猼
獂
猻
獃
猺
獀
獊
獍
獑
獌
獘
獒
獞
獟
獠
獝
獛
獡
獩
獦
獧
獬
獥
獫
獪
獳
獮
獯
獶
獽
獼
獾
獿
玂
玁
玃
玅
玆
玈
玊
玎
玕
玗
玓
玔
玤
玡
玭
玦
玢
玠
珌
珂
珈
珅
珓
珪
珙
珥
珖
玼
珧
珣
珞
珩
珶
珸
珵
琄
琁
珽
琇
琀
琮
琯
琬
琛
琰
琫
琖
琦
琚
琡
琨
琭
琱
琤
瑄
瑊
瑋
瑒
瑑
瑗
瑀
瑢
瑳
瑱
瑵
瑲
璇
璉
璊
瑾
璆
璀
璁
瑽
璅
瑿
璘
璚
璟
璞
璠
璗
璲
璫
璨
璐
璪
璸
瓀
璵
璿
瓁
瓋
璺
瓅
瓖
瓔
瓘
瓚
瓛
瓝
瓞
瓟
瓡
瓤
瓥
瓨
瓬
瓮
瓴
瓵
瓿
瓾
瓽
甀
甂
甃
甈
甋
甍
甐
甑
甒
甔
甓
甖
甗
甝
甡
甪
甯
甮
町
甹
甿
畀
甾
畎
畋
畇
畛
畟
畤
畣
畯
畬
畹
畷
畽
畿
疀
疌
疐
疔
疕
疢
疣
疧
疰
痂
痁
疻
疸
痄
痀
痎
痒
痍
痏
痋
痌
痑
痧
痚
痡
痦
痝
痟
痤
痗
痠
痯
瘏
痳
瘃
痷
痾
痼
痹
痸
瘐
痻
瘖
瘈
瘌
瘕
瘑
瘊
瘥
瘞
瘙
瘝
瘢
瘜
瘣
瘯
瘭
瘱
瘽
瘳
瘺
瘼
瘵
瘲
癃
癈
癉
癇
癜
癤
癙
癐
癓
癠
癟
癪
癭
癰
癵
癹
皁
皊
皋
皏
皕
皙
皜
皝
皞
皛
皤
皦
皫
皭
皯
皵
皸
皻
皽
皾
盄
盅
盉
盓
盝
盦
盩
盬
盭
盳
盱
眈
眃
眄
眅
眇
眊
盷
盻
眝
眛
眐
眓
眒
眣
眑
眕
眙
眚
眢
眹
眯
眭
眱
眲
眴
眳
眽
眥
睆
睇
睄
睍
睅
睊
睎
睋
睌
睕
睟
睠
睒
睖
睚
睩
睢
睧
睔
瞁
睼
瞅
瞂
睮
瞀
睯
睾
瞋
瞍
瞏
瞉
瞚
瞝
瞡
瞜
瞛
瞢
瞵
瞫
瞲
瞷
瞶
瞴
矂
瞼
矉
矊
矌
矎
矏
矍
矐
矔
矕
矘
矙
矞
矠
矧
矬
矰
矱
矲
矸
矼
矹
矻
矺
砆
砑
砒
砅
砐
砏
砎
砉
砣
砬
砢
砵
砠
砯
砟
砲
砨
砮
硎
硈
硒
硉
硍
硊
硌
砦
硠
硤
硥
硜
硭
硱
硪
确
硰
硩
碇
碚
碔
碏
碄
碕
碅
碓
碆
碲
碪
碴
碭
碣
碨
硾
碫
碞
磍
碻
磏
磌
磑
磎
磔
磈
磃
磝
磧
磩
磥
磪
磞
磣
磛
磳
磽
礂
磻
磼
磿
礌
礓
礔
礉
礐
礝
礛
礴
礜
礥
礣
礧
礨
礭
礱
礵
礽
祂
礿
祊
祌
祋
祅
祔
祛
祏
祜
祓
祒
祑
祤
祧
祩
祪
祣
祫
祡
祴
祳
祲
祼
禂
禘
禊
禋
禖
禕
禔
禓
禗
禚
禡
禠
禜
禫
禨
禭
禬
禰
禴
禳
禷
禸
禺
离
歶
秈
秅
秕
种
秏
秖
秎
秘
秫
秬
秠
秮
秭
秪
秺
秸
秶
稂
稊
稃
稌
稑
稘
稙
稞
稒
稗
稫
穊
稰
稯
稹
穋
穄
穈
穜
穛
穖
穟
穠
穧
穨
穮
穬
穭
穰
穱
穸
窀
穾
窆
窉
窅
窋
窌
窊
窏
窔
窐
窙
窣
窢
窞
窨
窫
窬
窲
窴
窱
窳
窶
窸
窵
窾
竀
窿
竁
竑
竘
竦
竫
竷
笐
笄
笓
笅
笏
笈
笊
笵
笻
笴
笥
笰
笢
笤
笳
笘
笪
笝
笮
笱
笫
笭
笯
笲
筊
筇
筑
筄
筈
筌
筦
筤
筭
筴
筮
筩
筲
筥
筧
筳
筱
筰
筡
箈
箜
箊
箑
箐
箸
箖
箍
箌
箛
箎
箅
箇
箘
劄
箙
箄
箷
篋
箾
箬
篎
箠
箯
篌
箹
篞
篣
篧
篝
篕
篥
篚
篨
篹
篔
篦
篪
簅
簏
篲
簀
篿
篻
簌
簎
篴
簋
篳
簂
簉
簃
篠
簁
篸
篽
簜
簩
簙
簠
簟
簭
簝
簦
簨
簢
簥
簳
簼
籀
簹
簬
簻
籉
籈
籊
籔
籗
籜
籙
籛
籧
籣
籥
籦
籩
籯
籽
籺
籸
籹
粄
粑
粊
粔
粘
粕
粢
粲
粻
粿
粼
粺
糅
糈
糌
糒
糔
糗
糝
糬
糪
糰
糲
糴
糱
糶
糷
紆
紃
紈
紞
紝
紑
紎
紘
紖
紓
紟
紒
紵
紽
紸
紶
紲
紺
紱
絅
紬
紩
絁
絇
紾
紿
絘
絯
絣
絓
絰
絖
絧
絪
絏
絳
絭
絜
絫
綈
綆
綀
綍
絿
綅
絺
綎
絻
綃
絼
綌
絛
綔
綧
綷
緂
綣
綪
緁
緀
緅
綝
緎
緄
緆
緋
綬
緌
綯
綹
綖
綼
綟
綦
綮
緷
緛
緪
緧
緗
緙
緡
縃
緺
緦
緲
緹
繌
緶
緱
緰
縒
縡
縞
縗
縌
縟
縠
縝
縓
縉
縎
縜
縕
縚
縢
縐
縋
縏
縭
縼
繂
縴
縳
縹
顈
繈
縸
縵
縪
繉
繀
繇
縩
縰
縿
縻
縶
繄
繒
繜
繐
繖
繣
繘
繢
繟
繙
繑
繠
繶
繵
繸
繰
繷
繯
繺
繳
繲
繴
繻
繾
纁
纀
纊
纇
纈
纋
纆
纍
纑
纕
纔
纗
纚
纘
纛
缾
缿
罃
罅
罋
罊
罌
罍
罏
网
罘
罜
罡
罞
罠
罝
罛
罣
罥
罦
罭
罫
罧
罨
罬
罳
罶
罻
罼
罺
罿
罾
罽
羃
羆
羇
羉
羑
羍
羖
羒
羕
羜
羝
羛
羢
羠
羡
羦
羥
羧
羬
羰
羭
羱
羵
羳
羷
羺
羼
羾
翃
翂
翊
翋
翍
翐
翑
翇
翏
翛
翜
翢
翣
翥
翭
翫
翪
翬
翦
翨
翮
翯
翴
翲
翽
翾
翿
耄
耇
耋
耎
耑
耏
耔
耖
耟
耞
耡
耤
耦
耪
耨
耬
耰
耴
耵
耷
耾
耹
聇
聃
聈
聑
聏
聒
聝
聵
聹
肊
肏
肕
肙
肐
肒
肜
肮
肣
肸
肵
胘
胇
胠
胑
胈
胂
胐
胅
胣
胙
胜
胊
胕
胉
胝
胏
胗
胺
胲
胼
胾
胹
胯
胵
脁
胻
脀
胔
脘
脰
脥
脤
脙
脛
脭
脟
脬
脞
脡
脕
脧
腃
腊
腌
腒
腏
腓
腇
脽
腴
腍
腤
腠
腷
腜
腩
腛
腢
腲
朡
腞
腶
腧
腯
腄
膉
膆
膃
膇
膍
膌
膂
膋
膣
膟
膘
膞
膕
膢
膱
膦
膮
膹
膵
膫
膰
膬
膴
膲
膷
膻
臄
臌
臊
臅
臇
臑
臒
臐
臗
臕
臛
臙
臝
臞
臢
臠
臡
臦
臩
臮
臲
臷
臸
臿
舁
舄
舋
舑
舕
舖
舝
舠
舡
舯
舸
舳
舺
舴
舲
舼
舽
艉
艄
艀
艂
艅
艋
艏
艓
艒
艐
艎
艑
艕
艛
艟
艤
艨
艫
艴
艵
艸
艼
芀
艽
芐
芏
芅
芎
芑
芓
芊
芃
芄
芔
芠
苀
芯
芫
芸
芚
芘
芣
芰
芾
芛
芵
芧
芮
芷
芼
芞
芺
芴
芨
芡
芩
苙
苾
苹
苯
茇
苨
茀
苕
茺
苫
苖
苴
苬
苡
苲
苵
茌
苻
茆
苶
茳
茨
茭
荄
茙
荑
茥
荖
茿
荁
茦
茜
茢
荂
荎
茛
茪
茈
茼
荍
茖
茤
茠
茷
茯
茩
荇
荃
荅
茻
莐
莣
莨
莍
荺
荳
莆
莤
荴
莏
莁
莕
莙
荵
莧
莔
莩
荽
莃
莌
莝
莛
莪
莋
荾
莥
菏
菹
萣
菀
菨
萒
菧
菤
菼
菶
萐
萇
菆
菈
菫
菣
莿
萁
菝
菥
菘
菿
菡
菋
菎
菖
菵
菉
萉
菔
菟
萏
菞
萑
萆
菂
菳
菕
菺
菇
菑
蓱
萿
葖
葶
葹
蒏
蒍
葥
葑
葀
蒆
葧
萰
葍
葽
葚
葙
葴
葳
葝
蔇
葞
萷
葭
萺
萴
葺
葃
葸
萲
葅
萩
菙
葋
萯
葂
萭
葟
葆
葰
萹
葎
葌
葒
葯
蒗
蒤
蒡
蒟
蓑
蒺
蓎
蓂
蒬
蒮
蒫
蒹
蒴
蓁
蓍
蒪
蒚
蒱
蓐
蒝
蒧
蒻
蒢
蒔
蓇
蓌
蒛
蒩
蒯
蒨
蓖
蒘
蒶
蓊
蓏
蒠
蔆
蔤
蔻
蔏
蔀
蔩
蔎
蔉
蔍
蔟
蔊
蔧
蔜
蓻
蔫
蓺
蔈
蔌
蓴
蔪
蓲
蔕
蓷
蓫
蓳
蓼
蔒
蓪
蓩
蔖
蓾
蔨
蔝
蔮
蔂
蓽
蔞
蓶
蔱
蔦
蓧
蓨
蕵
蓰
蓯
蓹
蔘
蔠
蔰
蕖
蕅
蕫
蕍
蕓
蕡
蕘
蕀
蕆
蕤
蕁
蕞
蕢
蕄
蕑
蕇
蕣
蔾
蕛
蕱
蕎
蕮
蕕
蕧
蕠
薌
蕦
蕝
薃
薀
薏
薧
薕
薠
薋
薣
蕻
薤
薚
薞
蕷
蕼
薉
薡
蕺
蕸
蕗
薎
薖
薨
薆
薍
薙
薝
薊
薁
薢
薂
薈
薅
薴
藆
藀
薺
藃
藂
薹
薳
薵
薽
藇
藄
薿
藋
藎
藈
藅
薱
薶
藒
蘤
藫
藱
藭
藙
藡
藨
藷
藚
藗
藬
藸
藘
藟
藣
藜
藑
藰
蘢
藿
蘁
藾
蘛
蘀
藲
藶
蘄
蘉
蘅
蘌
蘘
蘪
蘦
蘟
蘣
蘜
蘙
蘧
蘮
蘡
蘠
蘩
蘞
蘥
蘴
蘵
蘳
蘬
蘺
虀
蘹
蘼
蘱
蘻
蘾
虃
虆
虇
虈
虌
虋
虓
虒
虙
虖
虡
虢
虣
虩
虪
虰
虯
虭
虮
虻
虷
虺
虴
蚢
蚨
蚖
蚍
蚑
蚞
蚜
蚇
蚗
蚆
蚋
蚚
蚅
蚥
蚙
蚡
蚧
蚕
蚿
蚷
蛂
蛁
蛅
蚺
蚰
蛈
蚹
蚳
蛉
蚸
蛌
蚴
蚻
蚼
蛘
蛢
蛦
蛓
蛣
蛚
蛪
蛝
蛐
蛞
蛫
蛜
蛬
蛩
蛗
蜋
蜄
蛷
蜌
蛺
蛖
蛵
蝍
蛸
蜆
蜎
蜉
蜁
蜊
蛶
蜍
蜳
蜷
蜣
蜨
蝫
蝀
蜮
蜞
蜡
蜙
蜛
蝃
蜬
蝁
蜾
蝆
蜠
蜲
蜩
蜪
蜭
蜼
蜒
蜺
蜱
蜵
蝂
蜦
蜧
蜸
蜤
蜚
蜰
蜑
蝖
蝣
蝤
蝷
蟡
蝳
蝘
蝔
蝛
蝒
蝡
蝚
蝑
蝞
蝭
蝪
蝐
蝎
蝟
蝝
蝯
蝬
蝓
蝺
蝮
蝜
蝥
螛
螏
螗
螓
螒
螈
螁
螖
螘
蝹
螇
螣
螅
螐
螑
螝
螄
螔
螜
螚
螾
螪
螭
蟅
螰
螬
螹
螵
螼
螮
蟉
蟃
蟂
蟌
螷
螯
蟄
蟊
螴
螶
螿
螸
螽
蟞
蟧
蟦
蟢
蟛
蟫
蟪
蟥
蟟
蟳
蟤
蟔
蟠
蟜
蟓
蟭
蟘
蟣
斔
蟗
蟙
蠁
蟴
蟨
蠀
蟺
蠃
蟶
蟷
蠉
蠌
蠋
蟾
蠆
蟼
蠈
蟿
蠙
蠐
蠑
蠗
蠓
蠖
蠩
蠝
蠛
蠠
蠤
蠜
蠫
蠬
蠨
蠦
蠪
蠥
蠰
蠲
蠮
蠳
蠸
蠷
蠵
蠼
蠾
蠽
蠿
衁
衃
衄
衈
衊
衋
衎
衒
衖
衕
衚
衧
衪
衩
衭
衽
衵
衶
衲
袀
衱
衹
衿
衯
袃
衾
袉
袕
袨
袢
袪
袚
袑
袡
袟
袘
袧
袙
袛
袗
袤
袬
袌
袺
裗
袹
袸
裀
袾
袶
袼
袷
袽
袲
裖
裋
裍
裎
裞
裛
裒
裚
裷
裧
裱
裲
裺
裾
裮
裼
裶
裯
裻
褁
褅
褌
褔
褋
褗
褘
褙
褆
褖
褑
褕
褊
褎
褡
褞
褦
褰
褭
褮
褧
褱
褢
褩
褵
褳
褼
褾
襁
襒
褷
襂
褽
襓
襋
襏
襌
襆
襐
襢
襚
襛
襗
襡
襜
襘
襝
襞
襣
襦
襭
襩
襮
襬
襶
襴
襳
襹
襺
襾
覂
覅
覈
覕
覘
覜
覛
覝
覡
覢
覤
覣
覭
覯
覮
覷
覶
覿
觔
觓
觖
觙
觕
觝
觚
觟
觥
觤
觡
觠
觢
觜
觩
觫
觭
觰
觬
觱
觲
觳
觶
觷
觺
觻
觼
觾
觿
訄
訇
訏
訒
訑
訰
訧
訬
訞
訢
詎
詍
訶
訹
詙
詖
詀
詗
詘
詄
詅
詒
詈
詶
誆
詿
詡
訿
詷
誂
誄
詵
詻
誃
訾
誫
誙
誋
誚
誒
誶
諏
諆
誸
諓
諑
諔
諕
誻
誹
諗
誾
諛
諀
諅
諠
諳
諢
諲
諶
諴
諵
諝
謔
諤
諟
諰
諼
諈
諞
諡
謞
謐
謘
謖
謑
謅
謋
謢
謏
謒
謕
謇
謍
謈
謫
謪
謧
謣
謳
謰
謵
譇
謯
謼
謾
謱
謥
謷
謦
譐
譈
譊
譆
譀
譓
譖
譔
譋
譕
譑
譙
譠
譪
譝
譨
譟
譣
譥
譹
譸
譅
譺
譻
譾
讄
讂
讆
讌
讎
讋
讔
讕
讘
讙
讜
讞
讟
谹
谻
谼
谽
谾
豃
豇
豋
豍
豏
豗
豜
豝
豟
豥
豤
豦
豨
豭
豰
豲
豳
豱
豯
豵
豷
豶
豸
豻
豽
貁
貀
貆
貄
貅
貏
貑
貒
貕
貔
貙
貘
貗
貜
貤
貣
貺
貾
貰
賌
賕
賥
賟
賙
賨
賡
賚
賵
賮
賸
賻
賾
贄
贆
贇
贐
贔
贕
贙
赨
赩
赬
赮
赶
赸
趄
趀
趑
趌
趎
趏
趍
趓
趠
趜
趡
趥
趧
趬
趪
趭
趫
趮
趯
趲
趵
趷
趼
趺
跂
趹
趿
跘
跓
跍
跇
跖
跜
跏
跕
跙
跈
跗
跅
跤
跰
跠
跬
跱
跮
跐
跩
跦
跣
跢
跧
跲
跫
踉
踂
跿
踍
跽
踊
踃
踇
踆
踅
跾
踠
踣
踥
踤
踮
踡
踕
踛
踖
踑
踙
踦
踞
踧
踔
踒
踘
踓
踳
踾
踸
蹀
蹅
踶
踼
踽
蹁
踰
蹎
蹍
蹓
蹐
蹌
蹇
蹜
蹢
蹠
蹗
蹟
蹖
蹞
蹥
蹧
蹛
蹚
蹕
蹡
蹝
蹩
蹔
蹴
蹭
蹸
蹳
蹪
蹯
蹻
躆
躈
躄
躋
躕
躔
躚
躒
躓
躐
躖
躗
躞
躟
躠
躥
躤
躣
躦
躩
躨
躽
軏
軑
軓
軘
軞
軝
軯
軷
軺
軹
軦
軮
軥
軵
軧
軨
軶
軫
軱
軬
輆
軿
輁
輀
輅
輇
輈
輂
輋
輐
輑
輬
輤
輘
輚
輞
輠
輥
輣
輖
輗
輶
輳
輮
輵
輲
輹
輷
輴
轃
轀
轆
轇
轈
轒
轑
轏
轐
轓
轙
轖
轗
轕
轘
轚
轞
轛
轝
轠
轢
轤
辴
迉
迒
迋
迓
迍
迖
迕
迣
迡
迤
迮
迨
迸
迾
迵
适
迿
迻
逄
逤
逭
逋
逑
逜
逌
逡
逴
逯
逶
遒
逿
遄
遢
遝
遛
遳
遰
遯
遶
遹
遻
邅
邆
遾
邃
邈
邋
邍
邙
邗
邘
邛
邔
邟
邡
邥
邞
邧
邠
邲
邴
邶
邯
邳
邰
郱
邽
邿
郕
郅
邾
郇
郋
郃
郈
郖
郠
郙
郚
郣
郝
郟
郥
郢
郘
郛
郗
郜
郤
郯
郪
郰
郴
郲
郳
郔
郫
鄆
鄬
鄄
郾
郿
郼
鄈
郹
郻
鄁
鄀
鄇
鄅
鄃
郺
鄗
鄐
鄍
鄏
鄑
鄖
鄔
鄋
鄎
鄣
鄘
鄜
鄠
鄢
鄟
鄞
鄝
鄚
鄤
鄡
鄛
鄨
鄯
鄫
鄩
鄪
鄲
鄦
鄮
鄳
鄵
鄴
鄶
鄸
鄺
鄻
鄾
酀
酃
酁
酆
酄
酅
酈
酇
酐
酎
酏
酖
酘
酚
酓
酡
酤
酟
酢
酮
酯
酺
酲
酹
酴
酳
醅
醆
醊
醁
醓
醐
醑
醍
醚
醢
醛
醙
醟
醨
醥
醧
醯
醪
醰
醱
醭
醮
醷
醵
醴
醲
醳
醹
醼
醾
醽
釂
釃
釅
釆
釔
釕
釙
釢
釬
釭
釴
釱
釳
釩
釸
釤
釹
鈁
鈊
鈥
鈇
鈃
鈚
鈦
鈏
鈌
鈀
鈒
釿
鈑
釽
鈆
鉈
鉒
鈰
鉉
鉍
鈺
鉦
鉅
鈳
鉥
鉞
銃
鈮
鉊
鈹
鉆
鉭
鉬
鉏
鈿
鉠
鉧
鉯
鉚
鈶
銨
銥
鉼
銤
鉶
銛
鉺
銠
銔
銪
銍
銦
銚
銑
銫
鉹
銗
鉿
銣
鋮
銎
鋐
鋃
鋄
鋀
鋙
銶
鋏
鋱
鋟
鋘
鋩
鋇
鋰
銲
鋗
鋝
鋌
鋯
鋂
鋨
鋊
鋈
錧
錞
錈
錟
錆
錏
鍺
錡
錸
錼
錛
錣
錒
錕
錮
錁
鍆
錭
錎
錍
鋋
錙
鎡
鎃
鎯
鍤
鍖
鍇
鍼
鍘
鍜
鍶
鍉
鍚
鍔
鍐
鍑
鍠
鍭
鎏
鍌
鍪
鎵
鎬
鎰
鎌
鎒
鎷
鎘
鎛
鎝
鎉
鎧
鎎
鎪
鎚
鎞
鎦
鎗
鏞
鏇
鏏
鏂
鏚
鏐
鏹
鏬
鏌
鏙
鎩
鏦
鏊
鏨
鐋
鐓
鏻
鐠
鐏
鐔
鏾
鐕
鐐
鐨
鐙
鐍
鏵
鐀
鏷
鐇
鐎
鐖
鐿
鐻
鐶
鐫
鑌
鑐
鑊
鑋
鑢
鑕
鑪
鑫
鑮
鑭
鑯
鑱
鑷
鑴
钂
钀
钁
钃
镺
镻
镼
镽
閆
閈
閍
閌
閎
閟
閜
閞
閬
閫
閼
闍
閾
閹
閺
閶
閿
閵
閽
闇
闀
闉
闃
闅
閷
闕
闒
闓
闑
闚
闛
闞
闠
闟
闥
闤
阞
阢
阤
阠
阬
阰
阨
阯
阹
陂
阽
阼
阺
陔
陏
陑
陓
陊
陜
陘
陟
陞
陬
陼
陭
陫
隇
陾
隄
隈
隉
隃
隒
隓
隑
隗
隞
隤
隩
隮
隰
隳
隹
隼
隿
雂
雈
雎
雊
雒
雓
雔
雗
雚
巂
雟
雘
雝
雩
雱
雰
雺
雽
雿
霅
霈
霂
霋
霒
霐
霠
霣
霢
霤
霩
霫
霮
霰
霵
霿
霬
靆
靃
靉
靚
靪
靬
靰
靮
靳
靷
靸
靲
靽
靺
靾
鞃
鞀
鞂
靻
鞄
鞊
鞎
鞈
鞙
鞗
鞔
鞚
鞡
鞜
鞞
鞬
鞮
鞨
鞫
鞤
鞪
鞳
鞷
鞶
鞹
鞻
鞿
韄
韅
韇
韉
韎
韍
韐
韏
韕
韔
韗
韙
韝
韞
韟
韡
韣
韥
韰
韱
韹
韽
頄
頇
頏
頍
頎
頖
頞
頝
頦
頩
頨
頫
頠
頜
頵
頯
頲
顁
顄
顊
顉
顅
顐
顑
顒
顜
顙
顝
顗
顠
顢
顣
顟
顤
顥
顪
顩
顲
顳
顴
颬
颭
颮
颲
颸
颿
颽
颻
颾
飁
飂
飉
飆
飋
飌
飣
飫
飶
餂
餀
餈
飺
餑
餔
餖
餗
餕
餤
餟
餚
餧
餥
餫
餬
餪
餳
餲
餯
餭
餱
餰
餮
饁
餼
饈
饇
饉
饃
饐
饎
饙
饌
饋
饗
饘
饔
饕
饛
饟
饡
馗
馘
馝
馣
馦
馯
馲
馰
馵
駃
馹
馻
馺
駂
馽
駜
駍
駏
駓
駔
駎
駉
駖
駘
駮
駬
駥
駤
駰
駣
駪
駩
騂
駺
駴
駷
駹
駸
駶
駻
駽
駾
駼
騃
騏
騋
騉
騍
騄
騑
騊
騅
騇
騚
騕
騥
騝
騤
騛
騢
騠
騧
騣
騞
騜
騵
騲
騴
騱
騬
騪
騶
騩
騮
騸
騭
騹
騽
驆
驄
驂
驁
騺
驎
驓
驍
驔
驌
驏
驈
驊
驉
驒
驖
驞
驠
驤
驦
驩
驨
驫
骭
骫
骹
骿
骴
骾
髁
髀
髂
髇
髊
髆
髍
髐
髑
髕
髖
髟
髡
髣
髧
髬
髫
髳
髲
髶
髺
髹
髾
髽
鬁
髼
鬈
鬄
鬅
鬋
鬊
鬎
鬌
鬐
鬒
鬕
鬗
鬘
鬖
鬙
鬞
鬟
鬠
鬣
鬤
鬩
鬫
鬮
鬯
鬳
鬵
鬷
鬺
鬻
鬾
鬿
魆
魃
魈
魊
魎
魌
魍
魋
魑
魖
魠
魡
魧
魴
魱
魦
魶
魵
鮀
鮅
鮇
魼
魾
魻
鮂
鮓
鮒
鮐
鮚
鮭
鮨
鮞
鮛
鮦
鮡
鮥
鮤
鮆
鯇
鯆
鯃
鮿
鯁
鮵
鮸
鯈
鯓
鯀
鯖
鯪
鯫
鯠
鯞
鯤
鯛
鯦
鯢
鯰
鯔
鯗
鯬
鰋
鰈
鯷
鰅
鰒
鯸
鱀
鰫
鰝
鰜
鰬
鰣
鰨
鰩
鱆
鱈
鰿
鱄
鰹
鰳
鱁
鰼
鰷
鰴
鰲
鱒
鱘
鱐
鱊
鱍
鱋
鱕
鱣
鱧
鱦
鱢
鱞
鱠
鱟
鱨
鱮
鱴
鱳
鱹
鱺
鳦
鳪
鳭
鳧
鳱
鳲
鳵
鳼
鳺
鳽
鳿
鳷
鴇
鴀
鳹
鳻
鴈
鴅
鴃
鴥
鴗
鴠
鴞
鴔
鴩
鴝
鴘
鴢
鴐
鴳
鵁
鵧
鴶
鴮
鴯
鴱
鴸
鴰
鵅
鵂
鵃
鴾
鴷
鵀
鴽
鵜
鵓
鵏
鵊
鵛
鵋
鵙
鵖
鵌
鵗
鵒
鵔
鵟
鵷
鶁
鶊
鶄
鶈
鵱
鶀
鵸
鶆
鶋
鶌
鵽
鵫
鵴
鵵
鵰
鵩
鶅
鵳
鵻
鶂
鵯
鵹
鶟
鶙
鶤
鶝
鶒
鶘
鶐
鶛
鶠
鶔
鶜
鶪
鶗
鶡
鶚
鶢
鶨
鶞
鶣
鶿
鶩
鶖
鶷
鶶
鶼
鷁
鷇
鷊
鷏
鶾
鷅
鷃
鶻
鶵
鷎
鶹
鶺
鶬
鷈
鶱
鶭
鷛
鷒
鷞
鷚
鷋
鷐
鷜
鷑
鷟
鷩
鷙
鷘
鷖
鷵
鷕
鷻
鷷
鷯
鷣
鷫
鷸
鷤
鷶
鷡
鷮
鷦
鷲
鷰
鷢
鸂
鷾
鸇
鸃
鸆
鸅
鸀
鸁
鸉
鷿
鷽
鸄
鸋
鸍
鸐
鸏
鸔
鸒
鸑
鸓
鸕
鸗
鸙
鸛
鸝
鹵
鹺
麀
麃
麈
麆
麇
麊
麉
麎
麌
麔
麑
麙
麛
麚
麜
麠
麡
麤
麧
麮
麰
麶
麷
黀
黂
黈
黌
黐
黓
黕
黖
黚
黟
黥
黤
黧
黫
黮
黭
黰
黲
黳
黵
黶
黹
黺
黻
黼
黽
黿
鼁
鼀
鼆
鼉
鼊
鼏
鼐
鼒
鼖
鼛
鼘
鼜
鼤
鼣
鼢
鼥
鼫
鼪
鼩
鼨
鼭
鼯
鼰
鼮
鼱
鼵
鼳
鼲
鼸
鼷
鼶
鼽
齀
齁
齂
齃
齇
齉
齌
齍
齎
齏
齔
齕
齖
齗
齘
齛
齠
齞
齝
齥
齤
齧
齫
齱
齰
齮
齯
齴
齵
齶
齸
齻
齺
齹
齾
龒
龕
龠
龢
龤
兙
兛
兞
兝
兡
兣
嗧
瓩
糎
