%YAML 1.1
%TAG !u! tag:unity3d.com,2011:
--- !u!21 &2100000
Material:
  serializedVersion: 6
  m_ObjectHideFlags: 0
  m_CorrespondingSourceObject: {fileID: 0}
  m_PrefabInstance: {fileID: 0}
  m_PrefabAsset: {fileID: 0}
  m_Name: M_ENV_tree_pine_wind
  m_Shader: {fileID: 10703, guid: 0000000000000000f000000000000000, type: 0}
  m_ShaderKeywords: 
  m_LightmapFlags: 4
  m_EnableInstancingVariants: 0
  m_DoubleSidedGI: 1
  m_CustomRenderQueue: -1
  stringTagMap: {}
  disabledShaderPasses: []
  m_SavedProperties:
    serializedVersion: 3
    m_TexEnvs:
    - Texture2D_1DE54EE2:
        m_Texture: {fileID: 2800000, guid: a35a304ea256b734baa786da99f2cadc, type: 3}
        m_Scale: {x: 1, y: 1}
        m_Offset: {x: 0, y: 0}
    - Texture2D_4E799EAE:
        m_Texture: {fileID: 2800000, guid: 4b53c0b07c59df74e9fef56f4719d2ed, type: 3}
        m_Scale: {x: 1, y: 1}
        m_Offset: {x: 0, y: 0}
    - _MainTex:
        m_Texture: {fileID: 2800000, guid: a35a304ea256b734baa786da99f2cadc, type: 3}
        m_Scale: {x: 1, y: 1}
        m_Offset: {x: 0, y: 0}
    m_Floats:
    - Vector1_1947B203: 0
    - Vector1_2E84D361: 1
    - Vector1_4557F480: 0
    - Vector1_6EE46FE2: 0.734
    - Vector1_76F6C7FF: 0.44
    - Vector1_CA02C85D: 1.18
    - Vector1_CE0A1D1: 0.2
    - Vector1_CE879C73: 0.4
    - Vector1_FBDC2864: 0.403
    - Vector1_FF361FD1: 0
    m_Colors:
    - Color_281A0E8B: {r: 1, g: 1, b: 1, a: 0}
    - Vector2_C9ABB48D: {r: 3, g: 1, b: 1, a: 0}
--- !u!114 &1380943160872358740
MonoBehaviour:
  m_ObjectHideFlags: 11
  m_CorrespondingSourceObject: {fileID: 0}
  m_PrefabInstance: {fileID: 0}
  m_PrefabAsset: {fileID: 0}
  m_GameObject: {fileID: 0}
  m_Enabled: 1
  m_EditorHideFlags: 0
  m_Script: {fileID: 11500000, guid: d0353a89b1f911e48b9e16bdc9f2e058, type: 3}
  m_Name: 
  m_EditorClassIdentifier: 
  version: 1
