%YAML 1.1
%TAG !u! tag:unity3d.com,2011:
--- !u!29 &1
OcclusionCullingSettings:
  m_ObjectHideFlags: 0
  serializedVersion: 2
  m_OcclusionBakeSettings:
    smallestOccluder: 5
    smallestHole: 0.25
    backfaceThreshold: 100
  m_SceneGUID: 00000000000000000000000000000000
  m_OcclusionCullingData: {fileID: 0}
--- !u!104 &2
RenderSettings:
  m_ObjectHideFlags: 0
  serializedVersion: 9
  m_Fog: 0
  m_FogColor: {r: 0.5, g: 0.5, b: 0.5, a: 1}
  m_FogMode: 3
  m_FogDensity: 0.01
  m_LinearFogStart: 0
  m_LinearFogEnd: 300
  m_AmbientSkyColor: {r: 0.212, g: 0.227, b: 0.259, a: 1}
  m_AmbientEquatorColor: {r: 0.114, g: 0.125, b: 0.133, a: 1}
  m_AmbientGroundColor: {r: 0.047, g: 0.043, b: 0.035, a: 1}
  m_AmbientIntensity: 1
  m_AmbientMode: 0
  m_SubtractiveShadowColor: {r: 0.42, g: 0.478, b: 0.627, a: 1}
  m_SkyboxMaterial: {fileID: 10304, guid: 0000000000000000f000000000000000, type: 0}
  m_HaloStrength: 0.5
  m_FlareStrength: 1
  m_FlareFadeSpeed: 3
  m_HaloTexture: {fileID: 0}
  m_SpotCookie: {fileID: 10001, guid: 0000000000000000e000000000000000, type: 0}
  m_DefaultReflectionMode: 0
  m_DefaultReflectionResolution: 128
  m_ReflectionBounces: 1
  m_ReflectionIntensity: 1
  m_CustomReflection: {fileID: 0}
  m_Sun: {fileID: 0}
  m_IndirectSpecularColor: {r: 0.4448325, g: 0.49438828, b: 0.57357156, a: 1}
  m_UseRadianceAmbientProbe: 0
--- !u!157 &3
LightmapSettings:
  m_ObjectHideFlags: 0
  serializedVersion: 11
  m_GIWorkflowMode: 0
  m_GISettings:
    serializedVersion: 2
    m_BounceScale: 1
    m_IndirectOutputScale: 1
    m_AlbedoBoost: 1
    m_EnvironmentLightingMode: 0
    m_EnableBakedLightmaps: 1
    m_EnableRealtimeLightmaps: 1
  m_LightmapEditorSettings:
    serializedVersion: 10
    m_Resolution: 2
    m_BakeResolution: 40
    m_AtlasSize: 1024
    m_AO: 0
    m_AOMaxDistance: 1
    m_CompAOExponent: 1
    m_CompAOExponentDirect: 0
    m_Padding: 2
    m_LightmapParameters: {fileID: 0}
    m_LightmapsBakeMode: 1
    m_TextureCompression: 1
    m_FinalGather: 0
    m_FinalGatherFiltering: 1
    m_FinalGatherRayCount: 256
    m_ReflectionCompression: 2
    m_MixedBakeMode: 2
    m_BakeBackend: 1
    m_PVRSampling: 1
    m_PVRDirectSampleCount: 32
    m_PVRSampleCount: 500
    m_PVRBounces: 2
    m_PVRFilterTypeDirect: 0
    m_PVRFilterTypeIndirect: 0
    m_PVRFilterTypeAO: 0
    m_PVRFilteringMode: 1
    m_PVRCulling: 1
    m_PVRFilteringGaussRadiusDirect: 1
    m_PVRFilteringGaussRadiusIndirect: 5
    m_PVRFilteringGaussRadiusAO: 2
    m_PVRFilteringAtrousPositionSigmaDirect: 0.5
    m_PVRFilteringAtrousPositionSigmaIndirect: 2
    m_PVRFilteringAtrousPositionSigmaAO: 1
    m_ShowResolutionOverlay: 1
  m_LightingDataAsset: {fileID: 0}
  m_UseShadowmask: 1
--- !u!196 &4
NavMeshSettings:
  serializedVersion: 2
  m_ObjectHideFlags: 0
  m_BuildSettings:
    serializedVersion: 2
    agentTypeID: 0
    agentRadius: 0.5
    agentHeight: 2
    agentSlope: 45
    agentClimb: 0.4
    ledgeDropHeight: 0
    maxJumpAcrossDistance: 0
    minRegionArea: 2
    manualCellSize: 0
    cellSize: 0.16666667
    manualTileSize: 0
    tileSize: 256
    accuratePlacement: 0
    debug:
      m_Flags: 0
  m_NavMeshData: {fileID: 0}
--- !u!1001 &23895580
PrefabInstance:
  m_ObjectHideFlags: 0
  serializedVersion: 2
  m_Modification:
    m_TransformParent: {fileID: 0}
    m_Modifications:
    - target: {fileID: 8129867954090706397, guid: 69e3d0c90b4b16443a5543c4aec25498,
        type: 3}
      propertyPath: m_Name
      value: Directional light
      objectReference: {fileID: 0}
    - target: {fileID: 8129867954090706396, guid: 69e3d0c90b4b16443a5543c4aec25498,
        type: 3}
      propertyPath: m_LocalPosition.x
      value: 5.97
      objectReference: {fileID: 0}
    - target: {fileID: 8129867954090706396, guid: 69e3d0c90b4b16443a5543c4aec25498,
        type: 3}
      propertyPath: m_LocalPosition.y
      value: 3.23
      objectReference: {fileID: 0}
    - target: {fileID: 8129867954090706396, guid: 69e3d0c90b4b16443a5543c4aec25498,
        type: 3}
      propertyPath: m_LocalPosition.z
      value: 3.87
      objectReference: {fileID: 0}
    - target: {fileID: 8129867954090706396, guid: 69e3d0c90b4b16443a5543c4aec25498,
        type: 3}
      propertyPath: m_LocalRotation.x
      value: 0.10705525
      objectReference: {fileID: 0}
    - target: {fileID: 8129867954090706396, guid: 69e3d0c90b4b16443a5543c4aec25498,
        type: 3}
      propertyPath: m_LocalRotation.y
      value: 0.4565716
      objectReference: {fileID: 0}
    - target: {fileID: 8129867954090706396, guid: 69e3d0c90b4b16443a5543c4aec25498,
        type: 3}
      propertyPath: m_LocalRotation.z
      value: -0.81738657
      objectReference: {fileID: 0}
    - target: {fileID: 8129867954090706396, guid: 69e3d0c90b4b16443a5543c4aec25498,
        type: 3}
      propertyPath: m_LocalRotation.w
      value: 0.33460552
      objectReference: {fileID: 0}
    - target: {fileID: 8129867954090706396, guid: 69e3d0c90b4b16443a5543c4aec25498,
        type: 3}
      propertyPath: m_RootOrder
      value: 1
      objectReference: {fileID: 0}
    - target: {fileID: 8129867954090706396, guid: 69e3d0c90b4b16443a5543c4aec25498,
        type: 3}
      propertyPath: m_LocalEulerAnglesHint.x
      value: 125.112
      objectReference: {fileID: 0}
    - target: {fileID: 8129867954090706396, guid: 69e3d0c90b4b16443a5543c4aec25498,
        type: 3}
      propertyPath: m_LocalEulerAnglesHint.y
      value: 193.117
      objectReference: {fileID: 0}
    - target: {fileID: 8129867954090706396, guid: 69e3d0c90b4b16443a5543c4aec25498,
        type: 3}
      propertyPath: m_LocalEulerAnglesHint.z
      value: 51.357986
      objectReference: {fileID: 0}
    m_RemovedComponents: []
  m_SourcePrefab: {fileID: 100100000, guid: 69e3d0c90b4b16443a5543c4aec25498, type: 3}
--- !u!1001 &1428545082
PrefabInstance:
  m_ObjectHideFlags: 0
  serializedVersion: 2
  m_Modification:
    m_TransformParent: {fileID: 0}
    m_Modifications:
    - target: {fileID: 2371729611281733459, guid: 76fcd1f2e32f8f244ac19ae6bfe3884b,
        type: 3}
      propertyPath: m_Name
      value: Main Camera
      objectReference: {fileID: 0}
    - target: {fileID: 2371729611281733463, guid: 76fcd1f2e32f8f244ac19ae6bfe3884b,
        type: 3}
      propertyPath: m_LocalPosition.x
      value: 0
      objectReference: {fileID: 0}
    - target: {fileID: 2371729611281733463, guid: 76fcd1f2e32f8f244ac19ae6bfe3884b,
        type: 3}
      propertyPath: m_LocalPosition.y
      value: 3
      objectReference: {fileID: 0}
    - target: {fileID: 2371729611281733463, guid: 76fcd1f2e32f8f244ac19ae6bfe3884b,
        type: 3}
      propertyPath: m_LocalPosition.z
      value: -7
      objectReference: {fileID: 0}
    - target: {fileID: 2371729611281733463, guid: 76fcd1f2e32f8f244ac19ae6bfe3884b,
        type: 3}
      propertyPath: m_LocalRotation.x
      value: -0.08715578
      objectReference: {fileID: 0}
    - target: {fileID: 2371729611281733463, guid: 76fcd1f2e32f8f244ac19ae6bfe3884b,
        type: 3}
      propertyPath: m_LocalRotation.y
      value: -0
      objectReference: {fileID: 0}
    - target: {fileID: 2371729611281733463, guid: 76fcd1f2e32f8f244ac19ae6bfe3884b,
        type: 3}
      propertyPath: m_LocalRotation.z
      value: -0
      objectReference: {fileID: 0}
    - target: {fileID: 2371729611281733463, guid: 76fcd1f2e32f8f244ac19ae6bfe3884b,
        type: 3}
      propertyPath: m_LocalRotation.w
      value: -0.9961947
      objectReference: {fileID: 0}
    - target: {fileID: 2371729611281733463, guid: 76fcd1f2e32f8f244ac19ae6bfe3884b,
        type: 3}
      propertyPath: m_RootOrder
      value: 0
      objectReference: {fileID: 0}
    - target: {fileID: 2371729611281733463, guid: 76fcd1f2e32f8f244ac19ae6bfe3884b,
        type: 3}
      propertyPath: m_LocalEulerAnglesHint.x
      value: 10
      objectReference: {fileID: 0}
    - target: {fileID: 2371729611281733463, guid: 76fcd1f2e32f8f244ac19ae6bfe3884b,
        type: 3}
      propertyPath: m_LocalEulerAnglesHint.y
      value: 180
      objectReference: {fileID: 0}
    - target: {fileID: 2371729611281733463, guid: 76fcd1f2e32f8f244ac19ae6bfe3884b,
        type: 3}
      propertyPath: m_LocalEulerAnglesHint.z
      value: 0
      objectReference: {fileID: 0}
    m_RemovedComponents: []
  m_SourcePrefab: {fileID: 100100000, guid: 76fcd1f2e32f8f244ac19ae6bfe3884b, type: 3}
--- !u!1001 &1542814573
PrefabInstance:
  m_ObjectHideFlags: 0
  serializedVersion: 2
  m_Modification:
    m_TransformParent: {fileID: 0}
    m_Modifications:
    - target: {fileID: 1810070622622368, guid: d289c681103f6d140b4014e4c7eb38b3, type: 3}
      propertyPath: m_Name
      value: mp_pc_assassin_06
      objectReference: {fileID: 0}
    - target: {fileID: 4255818154355758, guid: d289c681103f6d140b4014e4c7eb38b3, type: 3}
      propertyPath: m_LocalPosition.x
      value: 0
      objectReference: {fileID: 0}
    - target: {fileID: 4255818154355758, guid: d289c681103f6d140b4014e4c7eb38b3, type: 3}
      propertyPath: m_LocalPosition.y
      value: 0
      objectReference: {fileID: 0}
    - target: {fileID: 4255818154355758, guid: d289c681103f6d140b4014e4c7eb38b3, type: 3}
      propertyPath: m_LocalPosition.z
      value: 0
      objectReference: {fileID: 0}
    - target: {fileID: 4255818154355758, guid: d289c681103f6d140b4014e4c7eb38b3, type: 3}
      propertyPath: m_LocalRotation.x
      value: 0
      objectReference: {fileID: 0}
    - target: {fileID: 4255818154355758, guid: d289c681103f6d140b4014e4c7eb38b3, type: 3}
      propertyPath: m_LocalRotation.y
      value: -1
      objectReference: {fileID: 0}
    - target: {fileID: 4255818154355758, guid: d289c681103f6d140b4014e4c7eb38b3, type: 3}
      propertyPath: m_LocalRotation.z
      value: 0
      objectReference: {fileID: 0}
    - target: {fileID: 4255818154355758, guid: d289c681103f6d140b4014e4c7eb38b3, type: 3}
      propertyPath: m_LocalRotation.w
      value: 0
      objectReference: {fileID: 0}
    - target: {fileID: 4255818154355758, guid: d289c681103f6d140b4014e4c7eb38b3, type: 3}
      propertyPath: m_RootOrder
      value: 2
      objectReference: {fileID: 0}
    - target: {fileID: 4255818154355758, guid: d289c681103f6d140b4014e4c7eb38b3, type: 3}
      propertyPath: m_LocalEulerAnglesHint.x
      value: 0
      objectReference: {fileID: 0}
    - target: {fileID: 4255818154355758, guid: d289c681103f6d140b4014e4c7eb38b3, type: 3}
      propertyPath: m_LocalEulerAnglesHint.y
      value: -180
      objectReference: {fileID: 0}
    - target: {fileID: 4255818154355758, guid: d289c681103f6d140b4014e4c7eb38b3, type: 3}
      propertyPath: m_LocalEulerAnglesHint.z
      value: 0
      objectReference: {fileID: 0}
    - target: {fileID: 95232140400519540, guid: d289c681103f6d140b4014e4c7eb38b3,
        type: 3}
      propertyPath: m_Controller
      value: 
      objectReference: {fileID: 9100000, guid: daf4509231b96a74097372bf5bd5eeb7, type: 2}
    - target: {fileID: 137848386283072678, guid: d289c681103f6d140b4014e4c7eb38b3,
        type: 3}
      propertyPath: m_Materials.Array.data[0]
      value: 
      objectReference: {fileID: 2100000, guid: 21d22e98a1e0e294eaf14e380b20e67a, type: 2}
    - target: {fileID: 23072897369214262, guid: d289c681103f6d140b4014e4c7eb38b3,
        type: 3}
      propertyPath: m_Materials.Array.data[0]
      value: 
      objectReference: {fileID: 2100000, guid: 88d8498ab55cc41408681957d9001ed3, type: 2}
    - target: {fileID: 23560343144905918, guid: d289c681103f6d140b4014e4c7eb38b3,
        type: 3}
      propertyPath: m_Materials.Array.data[0]
      value: 
      objectReference: {fileID: 2100000, guid: 88d8498ab55cc41408681957d9001ed3, type: 2}
    m_RemovedComponents:
    - {fileID: 114338368891659944, guid: d289c681103f6d140b4014e4c7eb38b3, type: 3}
  m_SourcePrefab: {fileID: 100100000, guid: d289c681103f6d140b4014e4c7eb38b3, type: 3}
