{
  "project_info": {
    "project_number": "473119557670",
    "firebase_url": "https://dungeon-knight-95427732.firebaseio.com",
    "project_id": "dungeon-knight-95427732",
    "storage_bucket": "dungeon-knight-95427732.appspot.com"
  },
  "client": [
    {
      "client_info": {
        "mobilesdk_app_id": "1:473119557670:android:63fa7fd0ae90eb716f7ee7",
        "android_client_info": {
          "package_name": "com.fireshrike.dk"
        }
      },
      "oauth_client": [
        {
          "client_id": "473119557670-53hcl9u79alhd3co66tlgkgg6jtl6v2q.apps.googleusercontent.com",
          "client_type": 1,
          "android_info": {
            "package_name": "com.fireshrike.dk",
            "certificate_hash": "783968313289d98cf5b10c1eaba83596dce2bffa"
          }
        },
        {
          "client_id": "473119557670-f5l9rtsek7s8suskf4he0g5g4jdr4275.apps.googleusercontent.com",
          "client_type": 3
        }
      ],
      "api_key": [
        {
          "current_key": "AIzaSyCQAkUHt3P-thTzSqAtNx-EsL-qjdFxy7s"
        }
      ],
      "services": {
        "appinvite_service": {
          "other_platform_oauth_client": [
            {
              "client_id": "473119557670-f5l9rtsek7s8suskf4he0g5g4jdr4275.apps.googleusercontent.com",
              "client_type": 3
            }
          ]
        }
      }
    }
  ],
  "configuration_version": "1"
}