%YAML 1.1
%TAG !u! tag:unity3d.com,2011:
--- !u!21 &2100000
Material:
  serializedVersion: 6
  m_ObjectHideFlags: 0
  m_CorrespondingSourceObject: {fileID: 0}
  m_PrefabInstance: {fileID: 0}
  m_PrefabAsset: {fileID: 0}
  m_Name: fx_wing_a_shaderforge_b
  m_Shader: {fileID: 4800000, guid: 3d5225114807d164385f9fc9c4c545ba, type: 3}
  m_ShaderKeywords: 
  m_LightmapFlags: 4
  m_EnableInstancingVariants: 0
  m_DoubleSidedGI: 0
  m_CustomRenderQueue: -1
  stringTagMap: {}
  disabledShaderPasses: []
  m_SavedProperties:
    serializedVersion: 3
    m_TexEnvs:
    - _dust:
        m_Texture: {fileID: 2800000, guid: 6b2368711b0885041b5c59487e3a198e, type: 3}
        m_Scale: {x: 1, y: 1}
        m_Offset: {x: 0, y: 0}
    - _mask:
        m_Texture: {fileID: 2800000, guid: 02178d1001db3f24ba197af4a3c6cc4c, type: 3}
        m_Scale: {x: 1, y: 1}
        m_Offset: {x: 0, y: 0}
    - _node_1464:
        m_Texture: {fileID: 2800000, guid: 21d26b3be32ee1d41b3a6653df9d257f, type: 3}
        m_Scale: {x: 1, y: 1}
        m_Offset: {x: 0, y: 0}
    - _node_245:
        m_Texture: {fileID: 2800000, guid: 21d26b3be32ee1d41b3a6653df9d257f, type: 3}
        m_Scale: {x: 1, y: 1}
        m_Offset: {x: 0, y: 0}
    - _node_3335:
        m_Texture: {fileID: 2800000, guid: 02178d1001db3f24ba197af4a3c6cc4c, type: 3}
        m_Scale: {x: 1, y: 1}
        m_Offset: {x: 0, y: 0}
    - _node_7546:
        m_Texture: {fileID: 2800000, guid: d1a8e1718773b9b498c9762874c0a5e9, type: 3}
        m_Scale: {x: 1, y: 1}
        m_Offset: {x: 0, y: 0}
    - _wing:
        m_Texture: {fileID: 2800000, guid: e9bf824ffff5a1a4fac9e0a20ec81f0a, type: 3}
        m_Scale: {x: 1, y: 1}
        m_Offset: {x: 0, y: 0}
    - _wing_dust:
        m_Texture: {fileID: 2800000, guid: 34513225bbe4976459f914cccac92504, type: 3}
        m_Scale: {x: 1, y: 1}
        m_Offset: {x: 0, y: 0}
    - _wing_main:
        m_Texture: {fileID: 2800000, guid: d1a8e1718773b9b498c9762874c0a5e9, type: 3}
        m_Scale: {x: 1, y: 1}
        m_Offset: {x: 0, y: 0}
    - _wing_mask:
        m_Texture: {fileID: 2800000, guid: 02178d1001db3f24ba197af4a3c6cc4c, type: 3}
        m_Scale: {x: 1, y: 1}
        m_Offset: {x: 0, y: 0}
    m_Floats:
    - _dust_UV: 4
    - _dust_intensity: 5
    - _dust_select: 0
    - _dust_speed: 0.5
    - _intensity: 5
    - _node_1487: 0.5
    - _node_1528: 1
    - _node_1603: 0
    - _node_1846: 1
    - _node_2045: 0
    - _node_3263: 0
    - _node_3310: 0
    - _node_3741: 0
    - _node_5809: 1
    - _node_609: 0
    - _node_7947: 0
    - _node_8836: 0
    - _node_9192: 0
    - _uv_size: 1
    - _wing_UV: 1
    - _wing_ani: 0.4285714
    - _wing_dust_UV: 1
    - _wing_dust_speed: 0
    - _wing_intensity: 1
    - _wing_main_speed: 0.5
    - _wing_speed: 0.5
    - _wing_uv: 1
    - _wing_uv_ani: 1
    m_Colors:
    - _color: {r: 0.5, g: 0.5, b: 0.5, a: 1}
    - _dust_color: {r: 0.69006085, g: 0.7528696, b: 0.8235294, a: 1}
    - _node_7807: {r: 0.5, g: 0.5, b: 0.5, a: 1}
    - _node_8008: {r: 0.5, g: 0.5, b: 0.5, a: 1}
    - _wing_color: {r: 0.6724138, g: 0.9132861, b: 1, a: 1}
